row,col,value
0,0,1.0
0,99,1.0
0,111,1.0
0,381,1.0
0,415,1.0
0,514,1.0
0,585,1.0
0,690,1.0
0,691,1.0
0,783,1.0
0,784,1.0
0,954,1.0
1,153,1.0
1,732,1.0
1,1937,1.0
2,962,1.0
3,634,1.0
4,588,1.0
5,36,1.0
5,63,1.0
5,97,1.0
5,603,1.0
5,949,1.0
6,64,1.0
6,682,1.0
8,868,1.0
8,1986,1.0
9,158,1.0
9,202,1.0
9,260,1.0
9,559,1.0
9,820,1.0
9,970,1.0
11,387,1.0
11,945,1.0
12,508,1.0
12,777,1.0
12,1741,1.0
13,250,1.0
14,868,1.0
16,145,1.0
18,59,1.0
20,6,1.0
21,680,1.0
21,1678,1.0
22,118,1.0
22,303,1.0
22,335,1.0
22,455,1.0
22,469,1.0
22,599,1.0
22,668,1.0
22,899,1.0
23,309,1.0
23,704,1.0
24,127,1.0
24,392,1.0
24,406,1.0
24,685,1.0
24,947,1.0
24,952,1.0
25,69,1.0
25,357,1.0
25,655,1.0
25,683,1.0
25,888,1.0
27,393,1.0
28,48,1.0
28,54,1.0
28,105,1.0
28,106,1.0
28,153,1.0
28,633,1.0
28,987,1.0
29,740,1.0
29,793,1.0
29,818,1.0
29,859,1.0
30,1203,1.0
30,1239,1.0
30,1282,1.0
30,1650,1.0
30,1788,1.0
30,1991,1.0
30,2064,1.0
30,2149,1.0
31,297,1.0
31,646,1.0
31,732,1.0
31,779,1.0
31,882,1.0
31,1282,1.0
31,1357,1.0
31,1489,1.0
31,1740,1.0
31,2082,1.0
31,2202,1.0
31,2665,1.0
31,2774,1.0
31,2812,1.0
31,3028,1.0
32,592,1.0
32,665,1.0
32,686,1.0
32,687,1.0
32,697,1.0
32,845,1.0
33,260,1.0
34,180,1.0
34,366,1.0
34,573,1.0
34,697,1.0
34,828,1.0
34,829,1.0
34,1587,1.0
35,92,1.0
35,500,1.0
37,182,1.0
37,310,1.0
37,444,1.0
37,828,1.0
37,1267,1.0
37,1724,1.0
37,2464,1.0
39,1010,1.0
40,146,1.0
40,148,1.0
40,177,1.0
40,411,1.0
40,480,1.0
40,621,1.0
40,625,1.0
41,418,1.0
41,2773,1.0
44,632,1.0
44,868,1.0
45,733,1.0
45,751,1.0
47,213,1.0
47,778,1.0
48,106,1.0
51,355,1.0
51,356,1.0
51,438,1.0
51,470,1.0
51,481,1.0
51,516,1.0
51,597,1.0
53,161,1.0
53,309,1.0
55,971,1.0
55,3279,1.0
56,1824,1.0
56,3291,1.0
57,157,1.0
57,1127,1.0
57,1253,1.0
57,1536,1.0
57,1608,1.0
57,1636,1.0
57,1682,1.0
57,1769,1.0
57,1981,1.0
58,180,1.0
58,302,1.0
58,697,1.0
60,443,1.0
60,586,1.0
61,944,1.0
62,802,1.0
63,949,1.0
64,91,1.0
64,210,1.0
64,239,1.0
64,569,1.0
65,152,1.0
67,54,1.0
67,105,1.0
67,176,1.0
69,355,1.0
69,356,1.0
69,516,1.0
70,750,1.0
71,190,1.0
71,939,1.0
77,813,1.0
78,534,1.0
78,732,1.0
79,37,1.0
79,103,1.0
79,278,1.0
79,460,1.0
79,828,1.0
79,1019,1.0
79,1724,1.0
79,2460,1.0
79,2677,1.0
79,3162,1.0
84,743,1.0
85,366,1.0
85,619,1.0
85,697,1.0
86,26,1.0
86,262,1.0
86,272,1.0
86,460,1.0
86,461,1.0
86,585,1.0
86,626,1.0
86,769,1.0
86,797,1.0
86,1006,1.0
87,87,1.0
87,597,1.0
88,152,1.0
88,154,1.0
88,779,1.0
88,1281,1.0
88,1998,1.0
88,1999,1.0
88,2073,1.0
89,546,1.0
89,548,1.0
96,913,1.0
96,997,1.0
97,5,1.0
97,36,1.0
97,63,1.0
97,949,1.0
99,723,1.0
99,931,1.0
99,952,1.0
100,680,1.0
102,267,1.0
104,129,1.0
104,131,1.0
104,134,1.0
104,140,1.0
105,176,1.0
105,180,1.0
108,383,1.0
108,1494,1.0
108,2125,1.0
110,584,1.0
113,382,1.0
115,569,1.0
115,671,1.0
117,117,1.0
119,810,1.0
120,634,1.0
121,866,1.0
123,310,1.0
123,547,1.0
123,668,1.0
123,669,1.0
124,881,1.0
126,617,1.0
130,182,1.0
130,1498,1.0
141,1002,1.0
144,141,1.0
144,146,1.0
144,453,1.0
144,1002,1.0
146,907,1.0
149,149,1.0
149,326,1.0
150,149,1.0
150,326,1.0
152,573,1.0
158,970,1.0
160,854,1.0
164,952,1.0
167,639,1.0
170,306,1.0
170,494,1.0
172,56,1.0
172,1168,1.0
172,1934,1.0
173,108,1.0
173,384,1.0
173,514,1.0
175,479,1.0
178,228,1.0
178,232,1.0
178,236,1.0
179,267,1.0
179,297,1.0
179,438,1.0
179,573,1.0
179,646,1.0
179,779,1.0
179,1075,1.0
179,1282,1.0
179,1650,1.0
179,1921,1.0
179,1991,1.0
183,185,1.0
183,452,1.0
183,605,1.0
183,2207,1.0
183,3117,1.0
184,54,1.0
184,106,1.0
184,422,1.0
184,539,1.0
184,586,1.0
184,694,1.0
184,697,1.0
184,714,1.0
184,999,1.0
184,1000,1.0
184,1249,1.0
184,1761,1.0
184,3252,1.0
192,607,1.0
201,383,1.0
201,1494,1.0
201,2125,1.0
202,255,1.0
203,239,1.0
204,204,1.0
204,650,1.0
204,945,1.0
207,499,1.0
209,347,1.0
217,724,1.0
218,65,1.0
218,725,1.0
218,732,1.0
218,1247,1.0
218,1489,1.0
218,1724,1.0
218,2104,1.0
218,2401,1.0
218,2638,1.0
218,3303,1.0
230,146,1.0
230,148,1.0
230,177,1.0
230,411,1.0
230,480,1.0
230,621,1.0
230,625,1.0
243,126,1.0
243,617,1.0
245,722,1.0
245,1009,1.0
262,541,1.0
262,673,1.0
262,797,1.0
263,26,1.0
263,122,1.0
263,311,1.0
263,344,1.0
263,424,1.0
263,425,1.0
263,426,1.0
263,566,1.0
263,685,1.0
263,768,1.0
263,769,1.0
263,796,1.0
263,840,1.0
264,723,1.0
264,815,1.0
265,69,1.0
265,107,1.0
265,194,1.0
265,501,1.0
265,502,1.0
265,567,1.0
265,655,1.0
265,888,1.0
266,65,1.0
266,88,1.0
266,152,1.0
266,297,1.0
266,685,1.0
266,732,1.0
266,905,1.0
266,2081,1.0
266,3191,1.0
268,561,1.0
268,668,1.0
269,80,1.0
270,868,1.0
271,690,1.0
272,103,1.0
272,262,1.0
272,285,1.0
272,310,1.0
272,516,1.0
272,827,1.0
272,887,1.0
273,432,1.0
273,433,1.0
274,36,1.0
274,63,1.0
274,83,1.0
274,203,1.0
274,735,1.0
275,28,1.0
275,54,1.0
275,105,1.0
275,106,1.0
275,153,1.0
275,469,1.0
275,619,1.0
275,697,1.0
275,956,1.0
275,987,1.0
275,1000,1.0
275,1249,1.0
276,69,1.0
276,107,1.0
276,463,1.0
276,555,1.0
276,580,1.0
276,581,1.0
276,655,1.0
276,827,1.0
276,888,1.0
276,901,1.0
276,902,1.0
278,182,1.0
278,310,1.0
278,444,1.0
278,828,1.0
278,1267,1.0
278,1724,1.0
278,2464,1.0
279,210,1.0
279,358,1.0
279,2292,1.0
279,2969,1.0
279,3005,1.0
279,3006,1.0
280,324,1.0
280,350,1.0
280,917,1.0
281,144,1.0
281,418,1.0
281,584,1.0
281,861,1.0
282,631,1.0
283,263,1.0
283,311,1.0
284,732,1.0
284,1513,1.0
285,94,1.0
285,159,1.0
285,356,1.0
285,445,1.0
285,697,1.0
285,896,1.0
285,2482,1.0
286,545,1.0
287,170,1.0
287,675,1.0
287,692,1.0
288,917,1.0
289,732,1.0
290,157,1.0
290,163,1.0
290,252,1.0
290,260,1.0
290,784,1.0
291,67,1.0
291,106,1.0
291,152,1.0
291,153,1.0
291,154,1.0
291,159,1.0
291,167,1.0
291,216,1.0
291,317,1.0
291,336,1.0
291,356,1.0
291,445,1.0
291,462,1.0
291,470,1.0
291,482,1.0
291,501,1.0
291,516,1.0
291,590,1.0
291,640,1.0
291,673,1.0
291,683,1.0
291,694,1.0
291,708,1.0
291,746,1.0
291,926,1.0
291,927,1.0
291,1714,1.0
291,3130,1.0
292,233,1.0
293,169,1.0
293,213,1.0
293,396,1.0
293,397,1.0
293,651,1.0
293,778,1.0
294,588,1.0
295,228,1.0
295,232,1.0
295,236,1.0
295,475,1.0
295,535,1.0
295,602,1.0
295,634,1.0
295,732,1.0
295,771,1.0
295,882,1.0
296,25,1.0
296,69,1.0
296,655,1.0
296,1007,1.0
297,122,1.0
297,127,1.0
297,504,1.0
297,541,1.0
297,797,1.0
297,802,1.0
297,1232,1.0
297,3015,1.0
298,764,1.0
298,1010,1.0
299,468,1.0
300,418,1.0
301,68,1.0
301,2245,1.0
302,251,1.0
302,438,1.0
302,746,1.0
302,804,1.0
302,911,1.0
303,180,1.0
303,841,1.0
304,304,1.0
304,634,1.0
305,228,1.0
305,232,1.0
305,236,1.0
308,868,1.0
308,1986,1.0
309,161,1.0
311,2529,1.0
311,2530,1.0
312,315,1.0
313,315,1.0
314,315,1.0
316,622,1.0
318,51,1.0
318,481,1.0
318,597,1.0
319,135,1.0
320,1009,1.0
323,109,1.0
323,133,1.0
323,512,1.0
323,513,1.0
323,514,1.0
325,149,1.0
325,326,1.0
326,324,1.0
326,350,1.0
326,591,1.0
326,917,1.0
326,1701,1.0
328,617,1.0
329,36,1.0
329,63,1.0
329,97,1.0
329,114,1.0
329,661,1.0
329,821,1.0
329,948,1.0
330,137,1.0
331,66,1.0
332,597,1.0
332,2342,1.0
333,722,1.0
337,287,1.0
337,675,1.0
338,69,1.0
338,107,1.0
338,463,1.0
338,555,1.0
338,580,1.0
338,581,1.0
338,655,1.0
338,827,1.0
338,888,1.0
338,901,1.0
338,902,1.0
339,813,1.0
339,1858,1.0
339,2799,1.0
339,3158,1.0
341,868,1.0
342,771,1.0
343,869,1.0
343,1804,1.0
344,2570,1.0
348,170,1.0
348,630,1.0
348,982,1.0
349,574,1.0
349,575,1.0
349,619,1.0
349,1177,1.0
350,515,1.0
352,353,1.0
352,354,1.0
352,2583,1.0
353,164,1.0
353,421,1.0
354,351,1.0
354,353,1.0
354,1958,1.0
354,2259,1.0
354,2407,1.0
354,2579,1.0
354,2580,1.0
354,2585,1.0
354,2586,1.0
354,2770,1.0
355,356,1.0
359,358,1.0
360,361,1.0
362,971,1.0
363,363,1.0
364,51,1.0
364,103,1.0
364,167,1.0
364,234,1.0
364,244,1.0
364,251,1.0
364,253,1.0
364,259,1.0
364,302,1.0
364,355,1.0
364,365,1.0
364,382,1.0
364,462,1.0
364,470,1.0
364,481,1.0
364,482,1.0
364,483,1.0
364,516,1.0
364,517,1.0
364,523,1.0
364,525,1.0
364,550,1.0
364,673,1.0
364,697,1.0
364,701,1.0
364,706,1.0
364,745,1.0
364,746,1.0
364,777,1.0
364,804,1.0
364,910,1.0
364,911,1.0
364,918,1.0
365,2446,1.0
369,651,1.0
370,135,1.0
370,1337,1.0
371,895,1.0
372,69,1.0
372,107,1.0
372,194,1.0
372,501,1.0
372,502,1.0
372,655,1.0
372,888,1.0
372,1007,1.0
373,94,1.0
373,251,1.0
373,262,1.0
373,374,1.0
373,444,1.0
373,445,1.0
373,2463,1.0
373,3014,1.0
373,3015,1.0
374,94,1.0
374,444,1.0
374,445,1.0
375,515,1.0
375,630,1.0
378,947,1.0
378,1633,1.0
378,2339,1.0
378,2596,1.0
381,119,1.0
381,605,1.0
381,606,1.0
381,684,1.0
381,713,1.0
383,108,1.0
383,384,1.0
383,514,1.0
384,514,1.0
385,202,1.0
385,386,1.0
386,202,1.0
386,240,1.0
387,202,1.0
387,434,1.0
387,649,1.0
387,650,1.0
388,249,1.0
388,579,1.0
388,676,1.0
389,196,1.0
389,334,1.0
389,467,1.0
389,579,1.0
389,584,1.0
389,636,1.0
389,936,1.0
389,973,1.0
390,7,1.0
390,10,1.0
390,15,1.0
390,22,1.0
390,28,1.0
390,51,1.0
390,54,1.0
390,58,1.0
390,82,1.0
390,85,1.0
390,94,1.0
390,98,1.0
390,103,1.0
390,106,1.0
390,147,1.0
390,151,1.0
390,153,1.0
390,154,1.0
390,155,1.0
390,156,1.0
390,167,1.0
390,176,1.0
390,180,1.0
390,182,1.0
390,200,1.0
390,212,1.0
390,219,1.0
390,221,1.0
390,231,1.0
390,233,1.0
390,234,1.0
390,244,1.0
390,248,1.0
390,253,1.0
390,254,1.0
390,259,1.0
390,303,1.0
390,317,1.0
390,318,1.0
390,336,1.0
390,355,1.0
390,356,1.0
390,363,1.0
390,382,1.0
390,391,1.0
390,414,1.0
390,444,1.0
390,445,1.0
390,450,1.0
390,455,1.0
390,456,1.0
390,462,1.0
390,470,1.0
390,481,1.0
390,482,1.0
390,483,1.0
390,504,1.0
390,507,1.0
390,516,1.0
390,517,1.0
390,523,1.0
390,525,1.0
390,550,1.0
390,557,1.0
390,573,1.0
390,576,1.0
390,597,1.0
390,608,1.0
390,619,1.0
390,658,1.0
390,668,1.0
390,669,1.0
390,673,1.0
390,680,1.0
390,694,1.0
390,697,1.0
390,698,1.0
390,700,1.0
390,701,1.0
390,702,1.0
390,706,1.0
390,708,1.0
390,711,1.0
390,727,1.0
390,744,1.0
390,746,1.0
390,772,1.0
390,773,1.0
390,799,1.0
390,802,1.0
390,804,1.0
390,812,1.0
390,880,1.0
390,896,1.0
390,899,1.0
390,906,1.0
390,910,1.0
390,929,1.0
390,1000,1.0
391,189,1.0
391,382,1.0
392,592,1.0
392,914,1.0
395,397,1.0
396,213,1.0
396,293,1.0
396,397,1.0
396,723,1.0
396,778,1.0
397,213,1.0
397,778,1.0
398,820,1.0
400,402,1.0
400,405,1.0
401,400,1.0
401,402,1.0
401,405,1.0
403,405,1.0
404,401,1.0
404,403,1.0
404,405,1.0
405,2134,1.0
406,789,1.0
407,812,1.0
408,516,1.0
409,191,1.0
410,116,1.0
410,174,1.0
410,241,1.0
410,316,1.0
410,411,1.0
410,570,1.0
410,622,1.0
410,975,1.0
413,2466,1.0
413,2868,1.0
414,58,1.0
416,137,1.0
416,142,1.0
416,144,1.0
416,146,1.0
416,198,1.0
416,351,1.0
416,418,1.0
416,453,1.0
416,499,1.0
416,879,1.0
416,1003,1.0
417,453,1.0
417,810,1.0
418,141,1.0
418,146,1.0
418,453,1.0
418,1002,1.0
419,281,1.0
419,360,1.0
420,233,1.0
421,1262,1.0
422,28,1.0
422,48,1.0
422,54,1.0
422,105,1.0
422,106,1.0
422,153,1.0
422,194,1.0
422,469,1.0
422,586,1.0
422,633,1.0
422,714,1.0
422,987,1.0
422,1899,1.0
423,952,1.0
424,426,1.0
425,426,1.0
428,673,1.0
429,284,1.0
429,305,1.0
429,601,1.0
429,732,1.0
429,1172,1.0
429,1408,1.0
429,1409,1.0
429,1512,1.0
429,1710,1.0
429,1721,1.0
430,732,1.0
431,868,1.0
432,433,1.0
432,915,1.0
433,915,1.0
434,387,1.0
434,506,1.0
437,438,1.0
437,516,1.0
437,711,1.0
438,251,1.0
439,51,1.0
439,58,1.0
439,94,1.0
439,167,1.0
439,212,1.0
439,244,1.0
439,253,1.0
439,259,1.0
439,302,1.0
439,332,1.0
439,355,1.0
439,364,1.0
439,365,1.0
439,382,1.0
439,414,1.0
439,438,1.0
439,444,1.0
439,445,1.0
439,481,1.0
439,482,1.0
439,483,1.0
439,516,1.0
439,517,1.0
439,525,1.0
439,597,1.0
439,668,1.0
439,669,1.0
439,680,1.0
439,697,1.0
439,702,1.0
439,747,1.0
439,755,1.0
439,804,1.0
439,871,1.0
439,918,1.0
440,10,1.0
441,645,1.0
441,774,1.0
441,880,1.0
441,1236,1.0
441,1478,1.0
441,1531,1.0
441,1723,1.0
441,1801,1.0
441,2168,1.0
441,2447,1.0
441,2665,1.0
441,2765,1.0
442,106,1.0
443,443,1.0
443,586,1.0
444,94,1.0
445,94,1.0
445,194,1.0
445,444,1.0
447,93,1.0
447,213,1.0
447,256,1.0
447,296,1.0
447,535,1.0
447,744,1.0
447,778,1.0
447,800,1.0
447,921,1.0
447,967,1.0
448,810,1.0
450,449,1.0
450,451,1.0
450,560,1.0
450,710,1.0
450,896,1.0
452,605,1.0
454,817,1.0
456,147,1.0
457,458,1.0
459,573,1.0
459,697,1.0
460,154,1.0
460,263,1.0
460,685,1.0
460,1006,1.0
460,2361,1.0
460,3156,1.0
460,3159,1.0
461,25,1.0
461,69,1.0
461,888,1.0
462,167,1.0
462,828,1.0
465,466,1.0
469,586,1.0
469,633,1.0
469,697,1.0
471,30,1.0
471,31,1.0
471,122,1.0
471,127,1.0
471,179,1.0
471,262,1.0
471,272,1.0
471,276,1.0
471,285,1.0
471,338,1.0
471,504,1.0
471,510,1.0
471,541,1.0
471,556,1.0
471,566,1.0
471,697,1.0
471,732,1.0
471,780,1.0
471,797,1.0
471,802,1.0
471,1075,1.0
471,1169,1.0
471,1199,1.0
471,1232,1.0
471,1357,1.0
471,1383,1.0
471,2221,1.0
471,2812,1.0
471,3015,1.0
472,142,1.0
472,145,1.0
474,90,1.0
476,475,1.0
477,346,1.0
477,369,1.0
477,753,1.0
477,951,1.0
478,868,1.0
481,51,1.0
482,51,1.0
482,481,1.0
482,697,1.0
483,51,1.0
483,154,1.0
483,189,1.0
483,244,1.0
483,253,1.0
483,259,1.0
483,355,1.0
483,481,1.0
483,516,1.0
483,525,1.0
483,597,1.0
483,702,1.0
483,706,1.0
483,708,1.0
483,918,1.0
486,138,1.0
486,485,1.0
487,42,1.0
487,271,1.0
487,950,1.0
488,17,1.0
488,39,1.0
488,42,1.0
488,271,1.0
488,367,1.0
488,368,1.0
488,487,1.0
488,488,1.0
488,489,1.0
488,569,1.0
488,790,1.0
488,833,1.0
488,834,1.0
488,950,1.0
488,955,1.0
488,964,1.0
488,1010,1.0
490,805,1.0
492,570,1.0
493,492,1.0
493,907,1.0
495,19,1.0
495,75,1.0
495,139,1.0
495,208,1.0
495,667,1.0
495,743,1.0
495,935,1.0
495,979,1.0
496,142,1.0
497,145,1.0
498,239,1.0
501,1007,1.0
502,107,1.0
502,501,1.0
502,508,1.0
502,755,1.0
502,1007,1.0
503,634,1.0
504,159,1.0
505,30,1.0
505,56,1.0
505,69,1.0
505,78,1.0
505,172,1.0
505,534,1.0
505,562,1.0
505,732,1.0
506,171,1.0
506,394,1.0
506,721,1.0
506,843,1.0
506,939,1.0
507,206,1.0
509,174,1.0
509,340,1.0
510,504,1.0
510,566,1.0
514,323,1.0
514,383,1.0
514,868,1.0
517,251,1.0
517,310,1.0
517,525,1.0
517,673,1.0
517,871,1.0
518,952,1.0
520,170,1.0
521,616,1.0
521,701,1.0
522,28,1.0
522,54,1.0
522,105,1.0
522,106,1.0
522,153,1.0
522,469,1.0
522,616,1.0
522,619,1.0
522,697,1.0
522,956,1.0
522,987,1.0
522,999,1.0
522,1000,1.0
522,1249,1.0
522,1374,1.0
522,1460,1.0
522,1464,1.0
523,182,1.0
523,261,1.0
524,971,1.0
525,590,1.0
528,528,1.0
530,879,1.0
531,188,1.0
531,532,1.0
531,810,1.0
533,533,1.0
533,534,1.0
533,732,1.0
534,732,1.0
537,380,1.0
537,655,1.0
538,673,1.0
539,86,1.0
539,460,1.0
540,784,1.0
541,507,1.0
542,101,1.0
542,145,1.0
542,791,1.0
544,14,1.0
544,286,1.0
544,545,1.0
546,548,1.0
547,159,1.0
547,244,1.0
547,253,1.0
547,259,1.0
547,572,1.0
547,573,1.0
547,590,1.0
547,697,1.0
551,679,1.0
551,680,1.0
552,952,1.0
553,673,1.0
553,1921,1.0
553,1951,1.0
553,2161,1.0
553,2728,1.0
553,2791,1.0
554,58,1.0
554,106,1.0
554,422,1.0
554,469,1.0
554,830,1.0
554,1000,1.0
554,1642,1.0
556,257,1.0
556,462,1.0
556,829,1.0
556,2266,1.0
558,475,1.0
561,561,1.0
561,655,1.0
561,669,1.0
564,132,1.0
564,536,1.0
564,775,1.0
564,975,1.0
566,152,1.0
566,770,1.0
566,771,1.0
566,802,1.0
567,1650,1.0
568,158,1.0
571,95,1.0
571,234,1.0
571,697,1.0
572,180,1.0
572,549,1.0
572,573,1.0
572,697,1.0
572,841,1.0
573,257,1.0
573,829,1.0
574,95,1.0
574,310,1.0
574,549,1.0
574,572,1.0
574,697,1.0
575,549,1.0
577,965,1.0
577,3209,1.0
581,580,1.0
582,200,1.0
583,158,1.0
584,202,1.0
584,240,1.0
584,386,1.0
587,808,1.0
588,952,1.0
589,129,1.0
589,131,1.0
589,134,1.0
589,140,1.0
591,217,1.0
591,724,1.0
591,978,1.0
592,235,1.0
595,593,1.0
595,594,1.0
596,160,1.0
596,496,1.0
598,151,1.0
598,336,1.0
598,599,1.0
600,569,1.0
600,671,1.0
601,17,1.0
601,834,1.0
604,59,1.0
605,185,1.0
606,199,1.0
608,167,1.0
608,168,1.0
608,238,1.0
608,413,1.0
608,578,1.0
608,597,1.0
608,639,1.0
608,706,1.0
608,773,1.0
608,896,1.0
609,462,1.0
609,828,1.0
609,3162,1.0
610,135,1.0
611,950,1.0
612,52,1.0
612,271,1.0
612,569,1.0
612,583,1.0
612,955,1.0
612,964,1.0
612,965,1.0
613,611,1.0
613,955,1.0
615,217,1.0
615,288,1.0
615,306,1.0
615,350,1.0
615,592,1.0
615,1509,1.0
615,3205,1.0
615,3217,1.0
616,7,1.0
616,51,1.0
616,67,1.0
616,481,1.0
616,549,1.0
616,571,1.0
616,572,1.0
616,574,1.0
616,575,1.0
616,668,1.0
616,694,1.0
616,714,1.0
616,748,1.0
616,998,1.0
616,999,1.0
616,1000,1.0
616,1714,1.0
616,2018,1.0
616,3236,1.0
618,240,1.0
619,220,1.0
619,920,1.0
620,621,1.0
620,623,1.0
621,623,1.0
623,621,1.0
623,623,1.0
624,621,1.0
624,623,1.0
624,625,1.0
625,229,1.0
625,623,1.0
627,823,1.0
628,1243,1.0
628,1461,1.0
629,350,1.0
629,515,1.0
629,629,1.0
629,630,1.0
631,70,1.0
631,226,1.0
631,241,1.0
631,403,1.0
631,411,1.0
631,492,1.0
631,495,1.0
631,620,1.0
631,750,1.0
631,979,1.0
631,980,1.0
631,988,1.0
631,995,1.0
631,1003,1.0
631,1009,1.0
635,491,1.0
635,870,1.0
637,149,1.0
637,150,1.0
637,324,1.0
637,325,1.0
637,326,1.0
637,327,1.0
637,552,1.0
638,128,1.0
639,640,1.0
640,639,1.0
641,157,1.0
641,209,1.0
641,719,1.0
643,35,1.0
643,38,1.0
643,64,1.0
643,83,1.0
643,121,1.0
643,136,1.0
643,239,1.0
643,271,1.0
643,313,1.0
643,314,1.0
643,348,1.0
643,641,1.0
643,661,1.0
643,682,1.0
643,807,1.0
643,808,1.0
643,814,1.0
643,840,1.0
643,866,1.0
643,893,1.0
643,923,1.0
643,994,1.0
644,42,1.0
644,271,1.0
644,611,1.0
644,1010,1.0
646,549,1.0
646,732,1.0
646,1282,1.0
646,1650,1.0
646,1895,1.0
646,2064,1.0
646,2149,1.0
646,2150,1.0
647,197,1.0
647,898,1.0
648,299,1.0
648,2181,1.0
648,2865,1.0
650,957,1.0
652,397,1.0
653,225,1.0
654,202,1.0
654,214,1.0
654,240,1.0
654,255,1.0
654,860,1.0
655,508,1.0
655,1007,1.0
656,166,1.0
657,656,1.0
657,935,1.0
658,82,1.0
659,70,1.0
659,208,1.0
659,211,1.0
659,241,1.0
659,330,1.0
659,495,1.0
659,570,1.0
659,660,1.0
659,722,1.0
659,750,1.0
659,877,1.0
659,979,1.0
659,980,1.0
659,986,1.0
659,1003,1.0
659,1009,1.0
660,40,1.0
660,875,1.0
660,986,1.0
661,36,1.0
661,63,1.0
661,97,1.0
661,191,1.0
661,203,1.0
661,313,1.0
661,314,1.0
661,328,1.0
661,603,1.0
661,617,1.0
661,674,1.0
661,726,1.0
661,735,1.0
661,835,1.0
661,836,1.0
661,852,1.0
661,877,1.0
661,908,1.0
661,948,1.0
662,877,1.0
663,6,1.0
663,17,1.0
663,20,1.0
663,643,1.0
663,657,1.0
663,831,1.0
663,858,1.0
664,502,1.0
665,727,1.0
665,728,1.0
666,667,1.0
668,251,1.0
668,802,1.0
669,251,1.0
670,205,1.0
672,215,1.0
672,2420,1.0
672,2437,1.0
673,376,1.0
673,377,1.0
673,711,1.0
673,762,1.0
673,802,1.0
673,839,1.0
674,72,1.0
674,76,1.0
676,2985,1.0
677,678,1.0
677,867,1.0
677,868,1.0
677,1394,1.0
677,1747,1.0
677,1984,1.0
678,44,1.0
678,379,1.0
678,867,1.0
678,1747,1.0
678,1984,1.0
679,680,1.0
681,219,1.0
681,231,1.0
681,248,1.0
681,2461,1.0
682,91,1.0
682,210,1.0
682,239,1.0
682,569,1.0
684,216,1.0
685,322,1.0
685,592,1.0
685,665,1.0
685,686,1.0
685,687,1.0
685,697,1.0
685,845,1.0
688,180,1.0
688,841,1.0
689,573,1.0
691,134,1.0
691,250,1.0
691,499,1.0
691,511,1.0
691,519,1.0
691,651,1.0
691,690,1.0
691,898,1.0
691,935,1.0
691,1009,1.0
693,400,1.0
693,401,1.0
693,404,1.0
693,405,1.0
695,1301,1.0
695,1960,1.0
696,614,1.0
697,224,1.0
698,85,1.0
698,95,1.0
698,180,1.0
698,303,1.0
698,456,1.0
698,481,1.0
698,549,1.0
698,571,1.0
698,572,1.0
698,574,1.0
698,575,1.0
698,619,1.0
698,668,1.0
698,694,1.0
698,697,1.0
698,700,1.0
698,701,1.0
698,805,1.0
698,904,1.0
699,22,1.0
699,34,1.0
699,54,1.0
699,85,1.0
699,98,1.0
699,105,1.0
699,106,1.0
699,153,1.0
699,155,1.0
699,156,1.0
699,251,1.0
699,310,1.0
699,366,1.0
699,516,1.0
699,575,1.0
699,619,1.0
699,668,1.0
699,669,1.0
699,697,1.0
699,700,1.0
699,701,1.0
699,714,1.0
699,746,1.0
699,748,1.0
699,755,1.0
699,842,1.0
699,906,1.0
699,987,1.0
699,999,1.0
699,1000,1.0
700,366,1.0
700,619,1.0
700,697,1.0
701,668,1.0
704,143,1.0
704,239,1.0
704,563,1.0
704,751,1.0
704,752,1.0
705,432,1.0
705,1420,1.0
707,708,1.0
708,223,1.0
709,707,1.0
709,708,1.0
712,935,1.0
714,28,1.0
714,54,1.0
714,67,1.0
714,105,1.0
714,106,1.0
714,153,1.0
714,956,1.0
714,987,1.0
714,999,1.0
714,1000,1.0
715,135,1.0
715,610,1.0
716,135,1.0
716,2381,1.0
716,2961,1.0
717,180,1.0
718,877,1.0
719,347,1.0
722,721,1.0
725,2400,1.0
727,728,1.0
729,730,1.0
729,1009,1.0
730,320,1.0
731,139,1.0
731,166,1.0
731,907,1.0
731,979,1.0
734,733,1.0
734,751,1.0
735,77,1.0
735,813,1.0
736,320,1.0
737,320,1.0
737,729,1.0
737,730,1.0
737,736,1.0
738,789,1.0
738,2665,1.0
739,235,1.0
739,464,1.0
739,588,1.0
739,592,1.0
739,738,1.0
741,1009,1.0
742,475,1.0
743,979,1.0
745,251,1.0
745,356,1.0
745,438,1.0
745,516,1.0
745,746,1.0
745,804,1.0
745,805,1.0
745,910,1.0
745,911,1.0
747,51,1.0
747,355,1.0
747,356,1.0
747,481,1.0
747,504,1.0
747,516,1.0
747,746,1.0
747,804,1.0
747,805,1.0
747,910,1.0
747,911,1.0
748,28,1.0
748,48,1.0
748,54,1.0
748,67,1.0
748,105,1.0
748,106,1.0
748,153,1.0
748,697,1.0
748,714,1.0
748,956,1.0
748,987,1.0
748,998,1.0
748,999,1.0
748,1000,1.0
748,1761,1.0
749,634,1.0
750,712,1.0
751,752,1.0
753,160,1.0
753,195,1.0
753,227,1.0
753,559,1.0
753,579,1.0
753,628,1.0
753,695,1.0
753,811,1.0
753,874,1.0
754,802,1.0
756,334,1.0
756,389,1.0
757,758,1.0
758,193,1.0
758,758,1.0
759,193,1.0
759,720,1.0
760,193,1.0
763,50,1.0
763,93,1.0
763,374,1.0
763,427,1.0
763,800,1.0
763,805,1.0
763,825,1.0
764,723,1.0
765,363,1.0
766,668,1.0
767,467,1.0
767,473,1.0
767,494,1.0
768,665,1.0
768,727,1.0
768,728,1.0
768,1876,1.0
769,538,1.0
769,685,1.0
769,686,1.0
769,687,1.0
769,796,1.0
769,1231,1.0
769,1234,1.0
769,1273,1.0
769,2157,1.0
769,2686,1.0
770,771,1.0
772,355,1.0
772,516,1.0
772,706,1.0
772,746,1.0
772,804,1.0
772,896,1.0
772,911,1.0
773,356,1.0
773,451,1.0
773,706,1.0
773,773,1.0
776,883,1.0
780,88,1.0
780,262,1.0
780,267,1.0
780,272,1.0
780,732,1.0
780,1006,1.0
780,1203,1.0
780,1239,1.0
780,1282,1.0
780,1650,1.0
780,1664,1.0
780,1788,1.0
780,1895,1.0
780,1921,1.0
780,1991,1.0
780,2064,1.0
780,2149,1.0
781,858,1.0
781,2585,1.0
782,162,1.0
782,754,1.0
782,2639,1.0
782,2640,1.0
783,290,1.0
787,722,1.0
788,89,1.0
788,319,1.0
788,546,1.0
788,579,1.0
788,875,1.0
788,935,1.0
791,188,1.0
792,29,1.0
792,793,1.0
792,859,1.0
793,740,1.0
793,793,1.0
793,818,1.0
793,859,1.0
794,240,1.0
795,91,1.0
795,1794,1.0
795,1811,1.0
795,2382,1.0
798,713,1.0
799,167,1.0
799,332,1.0
799,365,1.0
799,390,1.0
799,391,1.0
799,639,1.0
799,640,1.0
799,701,1.0
799,707,1.0
799,708,1.0
799,777,1.0
799,803,1.0
800,93,1.0
801,754,1.0
801,802,1.0
804,746,1.0
804,911,1.0
805,516,1.0
805,746,1.0
805,804,1.0
806,247,1.0
806,2767,1.0
809,136,1.0
809,807,1.0
809,808,1.0
810,246,1.0
814,35,1.0
814,121,1.0
814,136,1.0
814,188,1.0
814,519,1.0
814,723,1.0
814,786,1.0
814,807,1.0
814,808,1.0
814,816,1.0
814,866,1.0
814,884,1.0
816,121,1.0
816,723,1.0
816,866,1.0
817,171,1.0
817,1002,1.0
819,634,1.0
821,3013,1.0
822,125,1.0
822,144,1.0
822,145,1.0
822,146,1.0
822,242,1.0
822,281,1.0
822,360,1.0
822,412,1.0
822,417,1.0
822,418,1.0
822,472,1.0
822,473,1.0
822,767,1.0
822,810,1.0
822,879,1.0
824,970,1.0
825,321,1.0
828,1326,1.0
828,2460,1.0
830,176,1.0
831,834,1.0
831,886,1.0
832,17,1.0
834,964,1.0
836,837,1.0
837,835,1.0
838,108,1.0
838,173,1.0
838,201,1.0
838,383,1.0
838,384,1.0
842,180,1.0
842,842,1.0
842,896,1.0
846,170,1.0
846,287,1.0
846,604,1.0
846,848,1.0
846,850,1.0
847,18,1.0
847,40,1.0
847,43,1.0
847,46,1.0
847,49,1.0
847,59,1.0
847,81,1.0
847,138,1.0
847,181,1.0
847,186,1.0
847,187,1.0
847,191,1.0
847,202,1.0
847,242,1.0
847,307,1.0
847,394,1.0
847,409,1.0
847,435,1.0
847,436,1.0
847,484,1.0
847,506,1.0
847,509,1.0
847,519,1.0
847,520,1.0
847,526,1.0
847,527,1.0
847,529,1.0
847,542,1.0
847,583,1.0
847,593,1.0
847,594,1.0
847,595,1.0
847,712,1.0
847,723,1.0
847,729,1.0
847,730,1.0
847,741,1.0
847,760,1.0
847,761,1.0
847,775,1.0
847,785,1.0
847,788,1.0
847,814,1.0
847,816,1.0
847,826,1.0
847,843,1.0
847,966,1.0
847,980,1.0
847,983,1.0
847,984,1.0
847,996,1.0
848,109,1.0
848,348,1.0
848,509,1.0
848,515,1.0
848,814,1.0
848,816,1.0
848,980,1.0
848,983,1.0
848,984,1.0
848,985,1.0
849,40,1.0
849,607,1.0
850,313,1.0
850,604,1.0
851,543,1.0
851,2336,1.0
851,2756,1.0
852,565,1.0
853,753,1.0
853,1252,1.0
853,3296,1.0
854,854,1.0
855,432,1.0
855,704,1.0
855,733,1.0
855,1675,1.0
855,2282,1.0
855,2441,1.0
855,2699,1.0
855,3107,1.0
855,3124,1.0
856,877,1.0
857,345,1.0
857,775,1.0
860,214,1.0
860,861,1.0
862,90,1.0
862,474,1.0
862,534,1.0
862,732,1.0
862,862,1.0
862,1129,1.0
862,1212,1.0
862,1850,1.0
862,1937,1.0
862,1968,1.0
862,1969,1.0
863,165,1.0
863,857,1.0
863,864,1.0
863,865,1.0
865,1216,1.0
865,1240,1.0
865,1933,1.0
866,121,1.0
866,569,1.0
867,868,1.0
867,1747,1.0
868,632,1.0
872,213,1.0
872,778,1.0
873,576,1.0
874,2429,1.0
876,65,1.0
876,725,1.0
876,732,1.0
876,992,1.0
876,1247,1.0
876,1489,1.0
876,1724,1.0
876,2104,1.0
876,2400,1.0
876,2401,1.0
876,2638,1.0
876,3303,1.0
877,718,1.0
878,269,1.0
880,645,1.0
880,774,1.0
882,779,1.0
886,1010,1.0
887,262,1.0
887,686,1.0
887,687,1.0
887,697,1.0
887,779,1.0
887,1281,1.0
887,1951,1.0
887,1998,1.0
887,1999,1.0
887,2728,1.0
888,357,1.0
889,890,1.0
891,428,1.0
891,924,1.0
891,2728,1.0
892,500,1.0
892,703,1.0
893,703,1.0
894,73,1.0
897,557,1.0
897,3093,1.0
898,197,1.0
900,810,1.0
901,555,1.0
901,902,1.0
902,555,1.0
903,685,1.0
905,88,1.0
905,673,1.0
905,685,1.0
905,686,1.0
905,687,1.0
905,697,1.0
905,732,1.0
905,768,1.0
905,802,1.0
905,1231,1.0
905,1234,1.0
905,1969,1.0
905,2081,1.0
905,2161,1.0
905,2278,1.0
905,2669,1.0
905,2670,1.0
905,2686,1.0
905,2728,1.0
905,3040,1.0
905,3041,1.0
905,3191,1.0
908,852,1.0
909,446,1.0
912,826,1.0
916,5,1.0
916,36,1.0
916,63,1.0
916,77,1.0
916,274,1.0
916,329,1.0
916,400,1.0
916,595,1.0
916,617,1.0
916,661,1.0
916,813,1.0
917,112,1.0
917,149,1.0
917,150,1.0
917,325,1.0
917,326,1.0
917,327,1.0
919,764,1.0
919,1010,1.0
922,896,1.0
924,222,1.0
925,431,1.0
925,868,1.0
926,244,1.0
926,253,1.0
926,259,1.0
926,483,1.0
926,918,1.0
926,927,1.0
927,147,1.0
927,456,1.0
928,651,1.0
930,939,1.0
932,202,1.0
932,240,1.0
932,386,1.0
932,654,1.0
932,869,1.0
933,202,1.0
933,247,1.0
933,970,1.0
934,680,1.0
936,937,1.0
937,877,1.0
938,394,1.0
938,506,1.0
938,939,1.0
940,393,1.0
940,394,1.0
940,938,1.0
940,939,1.0
941,938,1.0
942,730,1.0
943,944,1.0
944,258,1.0
946,706,1.0
946,1238,1.0
947,974,1.0
948,328,1.0
951,277,1.0
951,399,1.0
953,415,1.0
953,684,1.0
954,379,1.0
954,737,1.0
956,54,1.0
956,633,1.0
956,1894,1.0
958,844,1.0
959,959,1.0
960,711,1.0
960,2415,1.0
961,635,1.0
961,1488,1.0
963,212,1.0
963,2129,1.0
966,186,1.0
968,727,1.0
968,969,1.0
969,684,1.0
969,1707,1.0
972,55,1.0
972,971,1.0
972,3279,1.0
973,196,1.0
976,355,1.0
976,516,1.0
977,355,1.0
977,516,1.0
978,917,1.0
978,1549,1.0
979,237,1.0
979,242,1.0
979,493,1.0
979,750,1.0
979,885,1.0
979,935,1.0
979,980,1.0
980,160,1.0
980,990,1.0
981,982,1.0
982,622,1.0
985,350,1.0
985,515,1.0
985,629,1.0
985,917,1.0
986,61,1.0
986,84,1.0
986,226,1.0
986,495,1.0
986,548,1.0
986,642,1.0
986,651,1.0
986,750,1.0
986,875,1.0
986,935,1.0
986,943,1.0
986,959,1.0
986,980,1.0
986,995,1.0
987,176,1.0
987,180,1.0
989,990,1.0
991,74,1.0
992,65,1.0
992,725,1.0
993,605,1.0
993,1721,1.0
993,3085,1.0
994,752,1.0
994,990,1.0
995,935,1.0
996,751,1.0
996,752,1.0
996,994,1.0
998,54,1.0
998,67,1.0
998,105,1.0
998,106,1.0
998,176,1.0
998,998,1.0
998,1000,1.0
999,28,1.0
999,54,1.0
999,67,1.0
999,105,1.0
999,106,1.0
999,714,1.0
999,956,1.0
999,987,1.0
999,998,1.0
999,1000,1.0
1000,67,1.0
1000,956,1.0
1000,998,1.0
1000,1000,1.0
1001,7,1.0
1001,377,1.0
1001,762,1.0
1003,247,1.0
1003,494,1.0
1004,7,1.0
1004,122,1.0
1004,355,1.0
1004,365,1.0
1004,481,1.0
1004,501,1.0
1004,502,1.0
1004,516,1.0
1004,619,1.0
1004,802,1.0
1004,901,1.0
1004,920,1.0
1004,1336,1.0
1004,1597,1.0
1004,2316,1.0
1005,51,1.0
1005,481,1.0
1005,680,1.0
1005,920,1.0
1005,1197,1.0
1005,1336,1.0
1005,1586,1.0
1005,2860,1.0
1006,779,1.0
1008,455,1.0
1011,1034,1.0
1011,2028,1.0
1011,2029,1.0
1012,2031,1.0
1012,2181,1.0
1013,1417,1.0
1013,1427,1.0
1013,1545,1.0
1013,2024,1.0
1014,1059,1.0
1014,1365,1.0
1014,1378,1.0
1015,1236,1.0
1015,1439,1.0
1015,1440,1.0
1015,2093,1.0
1016,2138,1.0
1017,591,1.0
1017,1264,1.0
1017,1549,1.0
1018,1524,1.0
1019,609,1.0
1019,2064,1.0
1021,1176,1.0
1022,1907,1.0
1023,1875,1.0
1024,1527,1.0
1029,1100,1.0
1029,1109,1.0
1029,1248,1.0
1030,1244,1.0
1031,1487,1.0
1031,1488,1.0
1031,1645,1.0
1031,1872,1.0
1032,2117,1.0
1033,1759,1.0
1033,2014,1.0
1033,2015,1.0
1034,1665,1.0
1034,1666,1.0
1035,1491,1.0
1036,1485,1.0
1037,1042,1.0
1037,1309,1.0
1037,1679,1.0
1038,1107,1.0
1038,1174,1.0
1038,1404,1.0
1038,1536,1.0
1038,1636,1.0
1038,1682,1.0
1038,1769,1.0
1039,1212,1.0
1040,1076,1.0
1040,1078,1.0
1040,1309,1.0
1040,1679,1.0
1041,2036,1.0
1042,1037,1.0
1042,1679,1.0
1043,1138,1.0
1043,1828,1.0
1043,1893,1.0
1043,2139,1.0
1043,2165,1.0
1044,1274,1.0
1045,1453,1.0
1045,1704,1.0
1045,1705,1.0
1045,1944,1.0
1045,1954,1.0
1045,1955,1.0
1045,1980,1.0
1045,2002,1.0
1046,1286,1.0
1046,1302,1.0
1046,1521,1.0
1046,1532,1.0
1046,1891,1.0
1046,1902,1.0
1046,2024,1.0
1047,1127,1.0
1047,1442,1.0
1047,1613,1.0
1047,1636,1.0
1047,1679,1.0
1047,1776,1.0
1048,1028,1.0
1049,1049,1.0
1050,1168,1.0
1050,1254,1.0
1051,1253,1.0
1051,2121,1.0
1054,1491,1.0
1055,1961,1.0
1055,1962,1.0
1055,1963,1.0
1056,1056,1.0
1056,1161,1.0
1057,1254,1.0
1058,1236,1.0
1058,2024,1.0
1059,1014,1.0
1059,1365,1.0
1059,1378,1.0
1060,1123,1.0
1061,1943,1.0
1063,1229,1.0
1063,1707,1.0
1064,1811,1.0
1065,1093,1.0
1066,1171,1.0
1066,1961,1.0
1066,1962,1.0
1066,1963,1.0
1067,1236,1.0
1067,1251,1.0
1068,235,1.0
1068,592,1.0
1068,1209,1.0
1068,1515,1.0
1068,1718,1.0
1068,2115,1.0
1070,1236,1.0
1071,1744,1.0
1073,1075,1.0
1075,1169,1.0
1076,1078,1.0
1077,1527,1.0
1078,1190,1.0
1078,1600,1.0
1079,1227,1.0
1079,1245,1.0
1079,1651,1.0
1079,1742,1.0
1079,1823,1.0
1079,1931,1.0
1080,1189,1.0
1080,1195,1.0
1080,1583,1.0
1081,1141,1.0
1081,1950,1.0
1083,1083,1.0
1083,1196,1.0
1083,1390,1.0
1083,1439,1.0
1083,1440,1.0
1083,1912,1.0
1083,1939,1.0
1083,2093,1.0
1084,2158,1.0
1086,1480,1.0
1088,1236,1.0
1090,1107,1.0
1090,1174,1.0
1090,1404,1.0
1090,1608,1.0
1092,2009,1.0
1093,2026,1.0
1094,1317,1.0
1094,1676,1.0
1096,1490,1.0
1098,133,1.0
1100,1579,1.0
1100,1723,1.0
1101,1118,1.0
1101,1441,1.0
1101,1609,1.0
1101,1840,1.0
1101,1864,1.0
1101,2132,1.0
1101,2133,1.0
1101,2170,1.0
1101,2171,1.0
1102,1673,1.0
1102,1958,1.0
1103,2103,1.0
1106,1132,1.0
1106,1339,1.0
1107,1200,1.0
1107,1404,1.0
1107,1425,1.0
1108,1317,1.0
1108,1676,1.0
1113,1395,1.0
1114,1187,1.0
1114,2058,1.0
1114,2059,1.0
1114,2104,1.0
1116,1893,1.0
1116,2139,1.0
1119,1119,1.0
1119,2036,1.0
1120,1210,1.0
1120,1256,1.0
1120,1604,1.0
1120,1606,1.0
1120,1818,1.0
1121,1674,1.0
1121,2113,1.0
1125,1250,1.0
1125,1286,1.0
1125,1302,1.0
1125,1891,1.0
1128,1588,1.0
1129,1937,1.0
1129,1969,1.0
1131,1885,1.0
1134,1422,1.0
1135,1747,1.0
1136,1494,1.0
1137,1964,1.0
1138,1801,1.0
1138,2168,1.0
1141,1248,1.0
1143,1980,1.0
1143,2103,1.0
1145,1139,1.0
1147,1874,1.0
1147,1952,1.0
1148,710,1.0
1148,1403,1.0
1148,1551,1.0
1148,1687,1.0
1150,421,1.0
1150,1236,1.0
1150,1262,1.0
1150,1294,1.0
1150,1506,1.0
1150,1508,1.0
1150,1659,1.0
1150,2118,1.0
1151,1301,1.0
1151,1960,1.0
1152,2949,1.0
1153,1329,1.0
1153,1342,1.0
1153,1629,1.0
1154,1117,1.0
1154,1135,1.0
1155,1213,1.0
1158,1214,1.0
1158,1461,1.0
1158,1571,1.0
1159,1257,1.0
1159,1287,1.0
1160,1160,1.0
1160,1369,1.0
1160,2083,1.0
1165,1788,1.0
1165,2066,1.0
1168,873,1.0
1168,1511,1.0
1168,1544,1.0
1168,2096,1.0
1168,2106,1.0
1174,1200,1.0
1174,1404,1.0
1174,1425,1.0
1175,278,1.0
1175,1360,1.0
1175,1385,1.0
1175,2173,1.0
1175,2174,1.0
1176,1897,1.0
1178,1178,1.0
1178,1871,1.0
1180,1196,1.0
1183,1836,1.0
1183,1837,1.0
1185,1945,1.0
1186,1648,1.0
1193,1548,1.0
1193,2112,1.0
1197,1587,1.0
1202,1183,1.0
1202,1841,1.0
1203,1432,1.0
1203,1964,1.0
1203,2151,1.0
1204,1208,1.0
1206,1210,1.0
1206,1256,1.0
1206,1604,1.0
1206,1606,1.0
1206,1818,1.0
1209,1748,1.0
1219,1236,1.0
1220,1075,1.0
1220,1169,1.0
1220,1199,1.0
1220,1387,1.0
1222,1540,1.0
1222,1807,1.0
1222,2044,1.0
1223,1711,1.0
1223,1712,1.0
1223,1713,1.0
1223,1964,1.0
1223,2099,1.0
1226,235,1.0
1226,592,1.0
1226,1322,1.0
1226,1821,1.0
1227,2792,1.0
1230,1191,1.0
1230,1514,1.0
1230,1811,1.0
1230,2097,1.0
1236,774,1.0
1236,2024,1.0
1241,1514,1.0
1242,1236,1.0
1242,2118,1.0
1243,1505,1.0
1247,1330,1.0
1253,1253,1.0
1254,754,1.0
1254,1721,1.0
1254,2043,1.0
1255,1255,1.0
1256,1818,1.0
1261,1750,1.0
1264,1284,1.0
1268,2120,1.0
1273,1339,1.0
1273,1454,1.0
1273,1668,1.0
1273,1714,1.0
1277,2043,1.0
1278,2020,1.0
1279,779,1.0
1279,1976,1.0
1291,1344,1.0
1292,1854,1.0
1292,1953,1.0
1293,1930,1.0
1297,1013,1.0
1297,1089,1.0
1297,1725,1.0
1307,2036,1.0
1307,2037,1.0
1310,1610,1.0
1310,2116,1.0
1312,1019,1.0
1312,1493,1.0
1314,1583,1.0
1338,1332,1.0
1343,404,1.0
1343,1412,1.0
1343,1881,1.0
1347,1089,1.0
1348,1353,1.0
1348,1965,1.0
1349,1290,1.0
1349,2031,1.0
1349,2124,1.0
1351,1893,1.0
1352,1207,1.0
1352,1449,1.0
1352,1539,1.0
1353,1965,1.0
1354,1019,1.0
1354,2856,1.0
1356,2061,1.0
1357,1976,1.0
1357,2774,1.0
1359,1583,1.0
1363,1759,1.0
1363,1946,1.0
1366,1727,1.0
1366,2043,1.0
1368,1355,1.0
1368,1414,1.0
1368,1415,1.0
1368,1476,1.0
1371,1078,1.0
1371,2140,1.0
1372,1904,1.0
1373,1083,1.0
1373,1152,1.0
1373,1373,1.0
1374,1061,1.0
1374,1062,1.0
1374,1177,1.0
1374,1410,1.0
1374,1726,1.0
1374,1979,1.0
1374,2035,1.0
1374,2149,1.0
1376,762,1.0
1376,1802,1.0
1379,1074,1.0
1379,1462,1.0
1379,1504,1.0
1379,1605,1.0
1380,1014,1.0
1380,1059,1.0
1380,1378,1.0
1380,1591,1.0
1381,1162,1.0
1381,1268,1.0
1381,2079,1.0
1382,1344,1.0
1382,1889,1.0
1383,1115,1.0
1383,1272,1.0
1383,1649,1.0
1383,1650,1.0
1383,1956,1.0
1385,1385,1.0
1386,341,1.0
1386,1358,1.0
1386,1384,1.0
1386,1566,1.0
1386,1757,1.0
1386,1758,1.0
1387,1073,1.0
1387,1169,1.0
1388,1982,1.0
1388,1983,1.0
1389,1146,1.0
1390,1148,1.0
1390,1672,1.0
1390,1688,1.0
1391,1582,1.0
1392,1090,1.0
1392,1608,1.0
1395,1313,1.0
1396,1236,1.0
1397,2093,1.0
1397,3008,1.0
1401,1109,1.0
1401,1401,1.0
1405,1445,1.0
1406,1080,1.0
1406,1314,1.0
1406,1316,1.0
1406,1359,1.0
1406,1364,1.0
1406,1367,1.0
1406,1370,1.0
1406,1380,1.0
1406,1584,1.0
1406,1658,1.0
1406,1715,1.0
1406,1731,1.0
1406,1732,1.0
1406,1733,1.0
1406,1736,1.0
1406,1737,1.0
1406,1822,1.0
1406,1923,1.0
1406,1941,1.0
1406,2070,1.0
1406,2135,1.0
1407,1179,1.0
1408,1715,1.0
1409,1745,1.0
1411,1225,1.0
1411,1679,1.0
1413,1216,1.0
1413,1240,1.0
1414,1025,1.0
1414,1355,1.0
1414,1368,1.0
1414,1415,1.0
1414,1476,1.0
1416,1144,1.0
1416,1231,1.0
1416,1234,1.0
1416,1249,1.0
1416,1284,1.0
1416,1431,1.0
1416,2157,1.0
1418,1306,1.0
1419,1921,1.0
1420,432,1.0
1420,1770,1.0
1420,2260,1.0
1420,2699,1.0
1420,3107,1.0
1421,1216,1.0
1421,1765,1.0
1421,1933,1.0
1423,1285,1.0
1423,1542,1.0
1423,1845,1.0
1423,1980,1.0
1424,1628,1.0
1426,2119,1.0
1428,1429,1.0
1431,2193,1.0
1435,1436,1.0
1435,2008,1.0
1436,1434,1.0
1437,1388,1.0
1437,1982,1.0
1438,1329,1.0
1438,1342,1.0
1439,1440,1.0
1443,1534,1.0
1443,1535,1.0
1444,1439,1.0
1444,1440,1.0
1445,2024,1.0
1446,1361,1.0
1446,1377,1.0
1446,1447,1.0
1446,1448,1.0
1448,1602,1.0
1450,2119,1.0
1451,1287,1.0
1454,1273,1.0
1455,2072,1.0
1456,1228,1.0
1456,1232,1.0
1456,1235,1.0
1456,1588,1.0
1457,1232,1.0
1457,1550,1.0
1458,1850,1.0
1459,1104,1.0
1460,1061,1.0
1460,1124,1.0
1460,1140,1.0
1460,1218,1.0
1460,1374,1.0
1460,1464,1.0
1460,1761,1.0
1460,1781,1.0
1460,1979,1.0
1461,628,1.0
1461,1243,1.0
1461,1648,1.0
1461,2005,1.0
1463,1590,1.0
1464,1184,1.0
1464,1761,1.0
1465,1298,1.0
1466,2045,1.0
1467,1467,1.0
1468,1467,1.0
1469,686,1.0
1470,1453,1.0
1470,1704,1.0
1470,1705,1.0
1470,1944,1.0
1470,1954,1.0
1470,1955,1.0
1470,1980,1.0
1470,2002,1.0
1472,1585,1.0
1473,1304,1.0
1473,1472,1.0
1473,1569,1.0
1473,1570,1.0
1474,1921,1.0
1474,2065,1.0
1475,1679,1.0
1475,2036,1.0
1477,1909,1.0
1478,1439,1.0
1478,1440,1.0
1479,1086,1.0
1479,1480,1.0
1479,1661,1.0
1479,2012,1.0
1481,1144,1.0
1481,2139,1.0
1482,1482,1.0
1483,1310,1.0
1483,2116,1.0
1484,1346,1.0
1488,1872,1.0
1492,56,1.0
1492,1157,1.0
1492,1492,1.0
1493,1738,1.0
1494,2125,1.0
1496,1020,1.0
1496,1746,1.0
1497,1497,1.0
1498,130,1.0
1500,1070,1.0
1500,1088,1.0
1500,1089,1.0
1500,1163,1.0
1500,1236,1.0
1500,1347,1.0
1500,1417,1.0
1500,1499,1.0
1500,2024,1.0
1501,1502,1.0
1503,1285,1.0
1504,1932,1.0
1506,1294,1.0
1507,1150,1.0
1509,149,1.0
1509,150,1.0
1509,324,1.0
1509,325,1.0
1509,326,1.0
1509,327,1.0
1509,1262,1.0
1509,1639,1.0
1510,1700,1.0
1511,2134,1.0
1512,305,1.0
1512,1409,1.0
1512,1824,1.0
1515,1748,1.0
1516,1329,1.0
1516,1342,1.0
1516,2470,1.0
1517,1162,1.0
1517,1268,1.0
1517,1331,1.0
1517,1335,1.0
1517,2079,1.0
1518,1519,1.0
1519,1216,1.0
1519,1303,1.0
1520,1233,1.0
1521,3255,1.0
1522,1319,1.0
1522,1323,1.0
1523,1167,1.0
1523,1826,1.0
1524,1168,1.0
1524,1254,1.0
1524,1581,1.0
1524,1934,1.0
1524,2041,1.0
1525,1661,1.0
1526,1761,1.0
1528,1255,1.0
1528,1478,1.0
1528,1723,1.0
1528,1814,1.0
1528,2738,1.0
1528,2765,1.0
1528,2970,1.0
1530,1185,1.0
1530,2008,1.0
1532,1286,1.0
1532,1302,1.0
1532,1532,1.0
1533,710,1.0
1533,1687,1.0
1537,1394,1.0
1538,1248,1.0
1539,1207,1.0
1540,1266,1.0
1541,1182,1.0
1541,1540,1.0
1542,1215,1.0
1542,1422,1.0
1542,1980,1.0
1543,828,1.0
1543,1326,1.0
1543,2293,1.0
1543,2460,1.0
1545,80,1.0
1545,1427,1.0
1546,1547,1.0
1546,1763,1.0
1549,978,1.0
1549,1549,1.0
1549,1624,1.0
1550,1235,1.0
1553,1554,1.0
1554,1553,1.0
1555,1555,1.0
1556,1555,1.0
1556,1647,1.0
1557,1558,1.0
1560,341,1.0
1560,1339,1.0
1560,1668,1.0
1560,1818,1.0
1562,1321,1.0
1564,1110,1.0
1564,1563,1.0
1564,1565,1.0
1568,235,1.0
1568,592,1.0
1568,1226,1.0
1573,1287,1.0
1574,1280,1.0
1577,1087,1.0
1577,1494,1.0
1578,1530,1.0
1580,2043,1.0
1580,2873,1.0
1582,2078,1.0
1583,1189,1.0
1584,1314,1.0
1585,1629,1.0
1586,1336,1.0
1586,1587,1.0
1588,1235,1.0
1589,1128,1.0
1589,1149,1.0
1589,1590,1.0
1590,1128,1.0
1592,1593,1.0
1594,1592,1.0
1594,1593,1.0
1595,1596,1.0
1597,1598,1.0
1599,1076,1.0
1599,1078,1.0
1599,1600,1.0
1599,1613,1.0
1599,1685,1.0
1599,1950,1.0
1599,2074,1.0
1601,1569,1.0
1602,1829,1.0
1606,1105,1.0
1606,1604,1.0
1609,1842,1.0
1611,2155,1.0
1612,1263,1.0
1613,1190,1.0
1614,1773,1.0
1615,1037,1.0
1615,1042,1.0
1615,1411,1.0
1615,1614,1.0
1616,1616,1.0
1618,1452,1.0
1619,1188,1.0
1620,2138,1.0
1621,2137,1.0
1622,1275,1.0
1622,1622,1.0
1623,1623,1.0
1624,1549,1.0
1625,1315,1.0
1626,1224,1.0
1626,1772,1.0
1626,2009,1.0
1628,206,1.0
1630,14,1.0
1630,1747,1.0
1631,90,1.0
1631,1129,1.0
1632,1801,1.0
1632,2168,1.0
1633,645,1.0
1633,774,1.0
1633,1801,1.0
1634,26,1.0
1634,1100,1.0
1634,1138,1.0
1634,1634,1.0
1634,1828,1.0
1634,1893,1.0
1634,2139,1.0
1634,2165,1.0
1634,2244,1.0
1634,2257,1.0
1636,1253,1.0
1636,1289,1.0
1636,1682,1.0
1637,1181,1.0
1637,1318,1.0
1637,1375,1.0
1637,1638,1.0
1637,1977,1.0
1637,2026,1.0
1638,1181,1.0
1638,1356,1.0
1638,1375,1.0
1638,1637,1.0
1638,2013,1.0
1640,1810,1.0
1642,1284,1.0
1644,1719,1.0
1645,1031,1.0
1645,1488,1.0
1646,421,1.0
1646,1131,1.0
1646,1262,1.0
1646,1320,1.0
1646,1321,1.0
1646,1883,1.0
1646,1885,1.0
1648,1243,1.0
1649,1272,1.0
1649,1650,1.0
1652,1868,1.0
1653,1237,1.0
1655,1422,1.0
1657,1080,1.0
1657,1189,1.0
1657,1314,1.0
1657,1359,1.0
1657,1583,1.0
1657,1584,1.0
1657,1735,1.0
1657,1736,1.0
1657,1737,1.0
1659,1659,1.0
1660,1661,1.0
1661,1098,1.0
1661,1362,1.0
1662,1326,1.0
1664,779,1.0
1664,1921,1.0
1664,1991,1.0
1667,828,1.0
1667,1326,1.0
1667,2328,1.0
1667,2460,1.0
1667,3028,1.0
1667,3153,1.0
1670,1671,1.0
1673,1639,1.0
1673,1958,1.0
1674,1482,1.0
1675,1216,1.0
1675,1240,1.0
1675,1933,1.0
1677,1724,1.0
1678,686,1.0
1678,1198,1.0
1678,1281,1.0
1678,1469,1.0
1678,1999,1.0
1678,2073,1.0
1680,1014,1.0
1680,1194,1.0
1680,1378,1.0
1681,1407,1.0
1681,1409,1.0
1683,1324,1.0
1683,1325,1.0
1683,1684,1.0
1686,1559,1.0
1687,421,1.0
1687,1236,1.0
1687,1508,1.0
1689,1830,1.0
1689,2176,1.0
1690,1122,1.0
1690,1478,1.0
1690,1528,1.0
1690,1814,1.0
1690,1891,1.0
1691,1815,1.0
1691,1992,1.0
1691,1993,1.0
1692,1593,1.0
1693,1260,1.0
1693,1844,1.0
1694,1810,1.0
1695,1100,1.0
1695,1690,1.0
1695,1828,1.0
1696,1697,1.0
1699,1334,1.0
1701,149,1.0
1701,150,1.0
1701,324,1.0
1701,325,1.0
1701,326,1.0
1701,327,1.0
1701,2057,1.0
1702,1703,1.0
1704,1285,1.0
1705,1617,1.0
1705,1704,1.0
1706,610,1.0
1706,1224,1.0
1706,1243,1.0
1706,1258,1.0
1706,1612,1.0
1707,1229,1.0
1707,1511,1.0
1707,2275,1.0
1708,818,1.0
1708,1214,1.0
1708,2753,1.0
1709,1490,1.0
1709,2072,1.0
1710,305,1.0
1710,1172,1.0
1710,1409,1.0
1710,1512,1.0
1710,1513,1.0
1716,1082,1.0
1716,1139,1.0
1716,1145,1.0
1716,1716,1.0
1716,1717,1.0
1717,1716,1.0
1717,1717,1.0
1717,1887,1.0
1720,1747,1.0
1722,2068,1.0
1724,1267,1.0
1725,1417,1.0
1725,1427,1.0
1725,1545,1.0
1725,2024,1.0
1727,1191,1.0
1727,1514,1.0
1727,1811,1.0
1727,2097,1.0
1728,1085,1.0
1728,1729,1.0
1729,1627,1.0
1729,1717,1.0
1730,1142,1.0
1730,1192,1.0
1731,1071,1.0
1731,1080,1.0
1731,1194,1.0
1731,1314,1.0
1731,1359,1.0
1731,1364,1.0
1731,1583,1.0
1731,1584,1.0
1731,1657,1.0
1731,1658,1.0
1731,1680,1.0
1731,1731,1.0
1731,1735,1.0
1731,1736,1.0
1731,1737,1.0
1731,1985,1.0
1732,1657,1.0
1732,1731,1.0
1732,1985,1.0
1733,1059,1.0
1733,1495,1.0
1733,1744,1.0
1735,1314,1.0
1735,1359,1.0
1735,1736,1.0
1735,1737,1.0
1736,1314,1.0
1736,1359,1.0
1736,1583,1.0
1736,1735,1.0
1737,1314,1.0
1737,1359,1.0
1737,1736,1.0
1740,1282,1.0
1740,1740,1.0
1740,1741,1.0
1740,1766,1.0
1743,1019,1.0
1743,1874,1.0
1743,2394,1.0
1744,1014,1.0
1744,1059,1.0
1744,1378,1.0
1745,1269,1.0
1749,1235,1.0
1751,2106,1.0
1752,1628,1.0
1752,1949,1.0
1753,1628,1.0
1753,1635,1.0
1753,1949,1.0
1754,1641,1.0
1755,1835,1.0
1755,1836,1.0
1755,1837,1.0
1756,1784,1.0
1756,1785,1.0
1759,1486,1.0
1759,1561,1.0
1759,1946,1.0
1759,1947,1.0
1760,1854,1.0
1760,1953,1.0
1762,1911,1.0
1764,1811,1.0
1766,1282,1.0
1767,1099,1.0
1768,1099,1.0
1768,1767,1.0
1769,1107,1.0
1769,1174,1.0
1770,1298,1.0
1770,1771,1.0
1770,2123,1.0
1771,1770,1.0
1771,2123,1.0
1772,1217,1.0
1772,2009,1.0
1772,2092,1.0
1775,1776,1.0
1776,1107,1.0
1776,1174,1.0
1776,1404,1.0
1778,1778,1.0
1779,1523,1.0
1780,1288,1.0
1781,1774,1.0
1782,1576,1.0
1783,1471,1.0
1786,1784,1.0
1787,1052,1.0
1787,1254,1.0
1787,1288,1.0
1787,1654,1.0
1787,1780,1.0
1787,1789,1.0
1788,1239,1.0
1789,2363,1.0
1791,1476,1.0
1792,1794,1.0
1793,1777,1.0
1794,1487,1.0
1794,1793,1.0
1795,1164,1.0
1796,1326,1.0
1797,1727,1.0
1798,2108,1.0
1799,1540,1.0
1799,1807,1.0
1799,2044,1.0
1801,1531,1.0
1801,2024,1.0
1803,1222,1.0
1804,1334,1.0
1804,1699,1.0
1806,1186,1.0
1806,1805,1.0
1808,1808,1.0
1809,1974,1.0
1810,1315,1.0
1812,1173,1.0
1812,1813,1.0
1812,2152,1.0
1815,1992,1.0
1816,1727,1.0
1817,1623,1.0
1818,1210,1.0
1818,1256,1.0
1819,2048,1.0
1820,1259,1.0
1820,1270,1.0
1820,1617,1.0
1820,1669,1.0
1822,1130,1.0
1823,1651,1.0
1827,2072,1.0
1831,1336,1.0
1831,1554,1.0
1832,1833,1.0
1833,1656,1.0
1833,2154,1.0
1834,1837,1.0
1835,1836,1.0
1838,1834,1.0
1838,1836,1.0
1838,1837,1.0
1839,1325,1.0
1841,1183,1.0
1842,1139,1.0
1842,1738,1.0
1843,1738,1.0
1847,1790,1.0
1848,1205,1.0
1848,1216,1.0
1848,1849,1.0
1850,1212,1.0
1850,1281,1.0
1850,1937,1.0
1850,1951,1.0
1850,1998,1.0
1850,1999,1.0
1851,1633,1.0
1851,1801,1.0
1851,2168,1.0
1851,2995,1.0
1851,3009,1.0
1852,1257,1.0
1852,1295,1.0
1852,1340,1.0
1853,1582,1.0
1856,1868,1.0
1857,577,1.0
1857,1126,1.0
1857,1193,1.0
1857,1858,1.0
1857,1859,1.0
1857,1966,1.0
1858,3013,1.0
1858,3274,1.0
1859,404,1.0
1859,3274,1.0
1860,1132,1.0
1860,1236,1.0
1860,1242,1.0
1860,1668,1.0
1861,1266,1.0
1862,1430,1.0
1863,1336,1.0
1863,1489,1.0
1864,1095,1.0
1864,1123,1.0
1864,1552,1.0
1865,1271,1.0
1866,1141,1.0
1866,1246,1.0
1866,2167,1.0
1867,1866,1.0
1869,1873,1.0
1870,1178,1.0
1870,1337,1.0
1870,1944,1.0
1870,1945,1.0
1873,1663,1.0
1875,1616,1.0
1875,1988,1.0
1876,686,1.0
1876,687,1.0
1877,1502,1.0
1877,1575,1.0
1878,1096,1.0
1878,1265,1.0
1878,1465,1.0
1878,1603,1.0
1878,1684,1.0
1878,2072,1.0
1879,2012,1.0
1880,1257,1.0
1882,2101,1.0
1883,1885,1.0
1884,1885,1.0
1886,1097,1.0
1886,1944,1.0
1888,1887,1.0
1889,1344,1.0
1890,1253,1.0
1891,1236,1.0
1891,1439,1.0
1892,1274,1.0
1892,1296,1.0
1893,1894,1.0
1894,1893,1.0
1895,779,1.0
1895,1991,1.0
1896,1176,1.0
1896,1393,1.0
1896,1607,1.0
1896,2051,1.0
1898,1899,1.0
1900,1221,1.0
1900,1811,1.0
1901,1300,1.0
1902,1286,1.0
1902,1302,1.0
1903,1624,1.0
1903,1965,1.0
1903,2032,1.0
1903,2033,1.0
1905,1027,1.0
1905,1360,1.0
1906,2048,1.0
1906,2826,1.0
1906,3123,1.0
1908,1166,1.0
1908,1689,1.0
1908,2176,1.0
1910,1911,1.0
1911,1248,1.0
1912,1083,1.0
1912,1150,1.0
1913,2143,1.0
1914,1914,1.0
1915,1790,1.0
1916,853,1.0
1916,1422,1.0
1916,1572,1.0
1916,1705,1.0
1918,1188,1.0
1918,1276,1.0
1918,1298,1.0
1918,1308,1.0
1918,1739,1.0
1918,1811,1.0
1918,1853,1.0
1918,1917,1.0
1918,2023,1.0
1918,2094,1.0
1918,2095,1.0
1918,2114,1.0
1918,2148,1.0
1918,2151,1.0
1918,2159,1.0
1918,2175,1.0
1919,1721,1.0
1919,1873,1.0
1919,1920,1.0
1920,1111,1.0
1920,1663,1.0
1920,1855,1.0
1922,1901,1.0
1924,1275,1.0
1924,1404,1.0
1924,1911,1.0
1925,2075,1.0
1926,1344,1.0
1927,1784,1.0
1927,1785,1.0
1927,1790,1.0
1928,1784,1.0
1928,1785,1.0
1928,1790,1.0
1928,1927,1.0
1928,2022,1.0
1929,1698,1.0
1929,2078,1.0
1930,1487,1.0
1931,2420,1.0
1935,1567,1.0
1935,1576,1.0
1935,1782,1.0
1935,1936,1.0
1937,1212,1.0
1938,1019,1.0
1940,1918,1.0
1941,1030,1.0
1941,1244,1.0
1942,1050,1.0
1944,1178,1.0
1944,1945,1.0
1946,1759,1.0
1948,1825,1.0
1949,1628,1.0
1949,1948,1.0
1952,1112,1.0
1952,1952,1.0
1956,251,1.0
1957,1026,1.0
1957,1409,1.0
1959,1673,1.0
1959,1958,1.0
1966,1548,1.0
1966,2112,1.0
1967,1013,1.0
1967,1725,1.0
1967,1967,1.0
1968,474,1.0
1970,1398,1.0
1970,1399,1.0
1970,1400,1.0
1970,1971,1.0
1971,1398,1.0
1971,1400,1.0
1972,1091,1.0
1972,1609,1.0
1972,1643,1.0
1972,1964,1.0
1972,1968,1.0
1972,2160,1.0
1975,1156,1.0
1975,1973,1.0
1976,1999,1.0
1977,1327,1.0
1977,1974,1.0
1977,2026,1.0
1978,1449,1.0
1979,1514,1.0
1979,1978,1.0
1979,2149,1.0
1980,1285,1.0
1980,2032,1.0
1980,2033,1.0
1980,2112,1.0
1984,1747,1.0
1985,1071,1.0
1985,1350,1.0
1985,1584,1.0
1985,1734,1.0
1986,1747,1.0
1988,1987,1.0
1989,1241,1.0
1989,1514,1.0
1989,2149,1.0
1990,762,1.0
1990,1311,1.0
1991,1921,1.0
1994,1214,1.0
1994,1819,1.0
1995,1997,1.0
1996,1179,1.0
1997,1179,1.0
1997,1996,1.0
1998,1281,1.0
1999,1281,1.0
2000,1845,1.0
2002,1452,1.0
2002,1954,1.0
2002,1955,1.0
2003,1487,1.0
2003,2002,1.0
2004,1214,1.0
2004,1461,1.0
2004,1571,1.0
2005,1332,1.0
2006,1214,1.0
2006,1258,1.0
2006,1422,1.0
2006,1571,1.0
2006,2005,1.0
2006,2109,1.0
2006,2110,1.0
2006,2112,1.0
2007,1034,1.0
2008,1341,1.0
2009,1224,1.0
2010,2010,1.0
2010,2011,1.0
2010,2012,1.0
2011,2012,1.0
2014,1033,1.0
2014,1759,1.0
2014,2015,1.0
2015,2014,1.0
2016,2017,1.0
2018,1295,1.0
2019,1398,1.0
2019,1400,1.0
2021,2079,1.0
2022,1402,1.0
2022,1784,1.0
2022,1790,1.0
2022,1927,1.0
2022,2022,1.0
2025,1235,1.0
2027,1065,1.0
2027,1093,1.0
2030,2090,1.0
2031,946,1.0
2031,1238,1.0
2033,2032,1.0
2034,1289,1.0
2034,1776,1.0
2034,1981,1.0
2039,2038,1.0
2040,2028,1.0
2040,2029,1.0
2042,1283,1.0
2046,1133,1.0
2046,2047,1.0
2048,1777,1.0
2048,1846,1.0
2049,1151,1.0
2049,1252,1.0
2049,1308,1.0
2049,1703,1.0
2049,1845,1.0
2049,1846,1.0
2049,1964,1.0
2049,2001,1.0
2049,2032,1.0
2049,2033,1.0
2049,2048,1.0
2049,2049,1.0
2049,2050,1.0
2049,2075,1.0
2049,2175,1.0
2050,853,1.0
2050,1285,1.0
2050,1332,1.0
2050,1423,1.0
2050,1542,1.0
2050,1648,1.0
2050,1980,1.0
2050,2006,1.0
2050,2032,1.0
2050,2033,1.0
2050,2112,1.0
2052,1463,1.0
2052,1490,1.0
2052,1590,1.0
2052,2025,1.0
2052,2072,1.0
2053,1273,1.0
2054,2072,1.0
2055,2054,1.0
2055,2056,1.0
2056,1341,1.0
2060,1201,1.0
2063,1048,1.0
2064,1921,1.0
2064,2065,1.0
2066,1788,1.0
2067,2067,1.0
2068,1345,1.0
2069,2068,1.0
2076,1245,1.0
2077,2175,1.0
2080,1300,1.0
2080,1333,1.0
2080,1704,1.0
2080,1705,1.0
2080,1926,1.0
2080,1954,1.0
2081,665,1.0
2081,1305,1.0
2081,1876,1.0
2081,2161,1.0
2082,2082,1.0
2083,1328,1.0
2083,1356,1.0
2083,1369,1.0
2083,1637,1.0
2083,2082,1.0
2084,2104,1.0
2085,2087,1.0
2087,2086,1.0
2088,1372,1.0
2089,2087,1.0
2091,2064,1.0
2098,1276,1.0
2098,2071,1.0
2100,2102,1.0
2101,2102,1.0
2105,311,1.0
2105,1100,1.0
2105,1144,1.0
2105,1579,1.0
2105,1723,1.0
2105,3044,1.0
2106,1751,1.0
2107,2108,1.0
2109,2110,1.0
2110,2005,1.0
2110,2112,1.0
2111,2112,1.0
2112,1332,1.0
2118,774,1.0
2118,2024,1.0
2119,1536,1.0
2121,1299,1.0
2121,1964,1.0
2126,2062,1.0
2126,2127,1.0
2128,1244,1.0
2130,963,1.0
2130,2129,1.0
2131,2129,1.0
2135,1053,1.0
2135,1194,1.0
2135,1680,1.0
2135,2141,1.0
2136,1394,1.0
2136,1747,1.0
2137,1069,1.0
2137,1211,1.0
2137,2147,1.0
2139,1255,1.0
2139,1498,1.0
2139,1828,1.0
2142,2143,1.0
2142,2144,1.0
2145,1805,1.0
2145,2054,1.0
2146,2162,1.0
2148,1203,1.0
2148,2150,1.0
2149,1921,1.0
2151,1432,1.0
2151,1433,1.0
2153,1800,1.0
2155,1611,1.0
2156,1072,1.0
2157,1231,1.0
2159,2175,1.0
2160,1968,1.0
2161,1921,1.0
2164,2163,1.0
2166,1170,1.0
2168,1801,1.0
2168,2168,1.0
2169,1133,1.0
2169,1170,1.0
2169,1529,1.0
2169,2166,1.0
2171,2172,1.0
2174,1385,1.0
2174,2173,1.0
2175,2122,1.0
2177,2903,1.0
2179,2200,1.0
2183,845,1.0
2183,2677,1.0
2183,3156,1.0
2184,2306,1.0
2184,2356,1.0
2185,2539,1.0
2186,3139,1.0
2187,2666,1.0
2188,3300,1.0
2189,2303,1.0
2189,2634,1.0
2190,3145,1.0
2192,2488,1.0
2195,2195,1.0
2195,2209,1.0
2196,55,1.0
2196,3279,1.0
2197,2504,1.0
2198,2198,1.0
2199,3025,1.0
2201,2201,1.0
2202,779,1.0
2202,828,1.0
2202,2460,1.0
2202,3162,1.0
2203,2911,1.0
2205,2899,1.0
2205,2900,1.0
2206,2675,1.0
2206,3099,1.0
2207,2632,1.0
2207,2855,1.0
2210,1707,1.0
2210,2275,1.0
2211,2326,1.0
2212,2423,1.0
2212,2474,1.0
2212,3132,1.0
2213,2244,1.0
2213,3258,1.0
2214,976,1.0
2214,2845,1.0
2217,3037,1.0
2218,3194,1.0
2219,2391,1.0
2220,2220,1.0
2221,2513,1.0
2221,2665,1.0
2221,3115,1.0
2222,2567,1.0
2224,2779,1.0
2224,2780,1.0
2225,2398,1.0
2226,2341,1.0
2228,3299,1.0
2229,2597,1.0
2231,2231,1.0
2232,2540,1.0
2232,3033,1.0
2232,3203,1.0
2233,2698,1.0
2233,3158,1.0
2235,2235,1.0
2235,2992,1.0
2236,2193,1.0
2241,2691,1.0
2242,2665,1.0
2243,2324,1.0
2243,3074,1.0
2245,2310,1.0
2245,2390,1.0
2245,2483,1.0
2246,2246,1.0
2246,3034,1.0
2248,2746,1.0
2249,2249,1.0
2250,2904,1.0
2252,3310,1.0
2256,2256,1.0
2256,2871,1.0
2257,3021,1.0
2258,2476,1.0
2258,2737,1.0
2259,2427,1.0
2259,2442,1.0
2259,2744,1.0
2261,2306,1.0
2261,2356,1.0
2262,2412,1.0
2263,1813,1.0
2263,2951,1.0
2263,2959,1.0
2264,2223,1.0
2265,2204,1.0
2273,2273,1.0
2274,2044,1.0
2274,3127,1.0
2276,626,1.0
2277,3029,1.0
2278,686,1.0
2278,1198,1.0
2278,1469,1.0
2278,3040,1.0
2281,2198,1.0
2282,1518,1.0
2285,2285,1.0
2285,2616,1.0
2288,2311,1.0
2296,2763,1.0
2298,3023,1.0
2299,2253,1.0
2299,2259,1.0
2302,2284,1.0
2302,2506,1.0
2305,2905,1.0
2306,2306,1.0
2306,2356,1.0
2312,3148,1.0
2312,3149,1.0
2314,3282,1.0
2316,2406,1.0
2317,2457,1.0
2319,2561,1.0
2320,2401,1.0
2320,2638,1.0
2322,2605,1.0
2322,3203,1.0
2324,2324,1.0
2324,3074,1.0
2325,2594,1.0
2327,3221,1.0
2328,3153,1.0
2329,2329,1.0
2332,1173,1.0
2333,2500,1.0
2335,3200,1.0
2335,3247,1.0
2338,3059,1.0
2339,974,1.0
2339,2596,1.0
2340,725,1.0
2340,2400,1.0
2344,2456,1.0
2344,2624,1.0
2345,2230,1.0
2347,2860,1.0
2348,2548,1.0
2350,2793,1.0
2350,2907,1.0
2351,3013,1.0
2352,2479,1.0
2353,2565,1.0
2357,2354,1.0
2360,2839,1.0
2361,130,1.0
2361,2556,1.0
2361,3255,1.0
2362,614,1.0
2364,2418,1.0
2365,3285,1.0
2368,2368,1.0
2369,3070,1.0
2371,377,1.0
2372,2372,1.0
2374,2420,1.0
2375,2269,1.0
2375,3213,1.0
2375,3214,1.0
2375,3216,1.0
2376,2965,1.0
2378,2682,1.0
2378,2683,1.0
2388,2388,1.0
2394,2397,1.0
2395,3181,1.0
2404,2960,1.0
2406,2406,1.0
2416,2629,1.0
2420,2437,1.0
2422,2371,1.0
2426,2756,1.0
2430,2430,1.0
2434,2767,1.0
2436,2436,1.0
2438,2465,1.0
2440,2425,1.0
2448,2563,1.0
2455,861,1.0
2455,2850,1.0
2455,2851,1.0
2462,2908,1.0
2467,2470,1.0
2486,2583,1.0
2487,3185,1.0
2489,2391,1.0
2490,2578,1.0
2491,2223,1.0
2493,2854,1.0
2494,686,1.0
2494,1198,1.0
2494,1469,1.0
2494,3040,1.0
2496,2496,1.0
2499,2191,1.0
2500,2500,1.0
2501,2861,1.0
2501,3180,1.0
2502,2377,1.0
2507,3074,1.0
2508,2215,1.0
2509,2638,1.0
2509,2649,1.0
2509,3301,1.0
2511,3206,1.0
2512,2182,1.0
2514,2599,1.0
2515,3133,1.0
2517,2367,1.0
2518,2846,1.0
2519,2254,1.0
2520,3024,1.0
2521,2557,1.0
2522,3223,1.0
2523,2431,1.0
2525,2446,1.0
2528,2342,1.0
2530,2529,1.0
2531,2533,1.0
2534,2473,1.0
2534,2609,1.0
2535,2534,1.0
2536,2280,1.0
2537,2537,1.0
2538,2309,1.0
2540,2469,1.0
2540,3033,1.0
2541,2542,1.0
2541,2944,1.0
2545,3274,1.0
2546,2191,1.0
2547,2893,1.0
2550,3004,1.0
2550,3005,1.0
2551,2551,1.0
2552,2456,1.0
2552,2478,1.0
2553,2402,1.0
2553,2405,1.0
2554,2255,1.0
2556,3255,1.0
2558,2224,1.0
2558,2780,1.0
2558,3022,1.0
2559,246,1.0
2559,3120,1.0
2560,2581,1.0
2562,2563,1.0
2564,2359,1.0
2566,2567,1.0
2568,2757,1.0
2569,2729,1.0
2571,2570,1.0
2572,3192,1.0
2573,2965,1.0
2574,3217,1.0
2575,3163,1.0
2579,351,1.0
2579,2407,1.0
2580,2579,1.0
2580,2770,1.0
2582,2662,1.0
2584,2586,1.0
2584,2672,1.0
2585,2584,1.0
2586,2584,1.0
2586,2585,1.0
2586,2586,1.0
2587,2587,1.0
2589,2589,1.0
2590,2178,1.0
2590,2476,1.0
2591,821,1.0
2591,2697,1.0
2591,2698,1.0
2592,3296,1.0
2593,62,1.0
2593,1312,1.0
2593,2199,1.0
2593,3166,1.0
2593,3187,1.0
2594,2325,1.0
2594,2595,1.0
2595,2325,1.0
2595,2594,1.0
2598,2548,1.0
2599,3093,1.0
2600,3109,1.0
2601,2642,1.0
2603,2271,1.0
2603,2602,1.0
2603,2809,1.0
2604,2766,1.0
2606,2607,1.0
2607,2606,1.0
2607,2608,1.0
2611,2612,1.0
2613,2605,1.0
2614,2617,1.0
2614,2619,1.0
2615,2285,1.0
2615,2615,1.0
2615,2616,1.0
2616,2614,1.0
2616,2617,1.0
2616,2618,1.0
2618,2617,1.0
2619,2618,1.0
2621,2620,1.0
2622,2859,1.0
2623,2792,1.0
2624,2456,1.0
2625,2626,1.0
2627,3018,1.0
2628,2380,1.0
2630,2321,1.0
2631,2481,1.0
2633,2577,1.0
2636,2635,1.0
2640,2639,1.0
2641,185,1.0
2641,3117,1.0
2642,2601,1.0
2643,2645,1.0
2644,2645,1.0
2646,2282,1.0
2648,2648,1.0
2650,2660,1.0
2651,692,1.0
2651,914,1.0
2651,2574,1.0
2651,2994,1.0
2652,2271,1.0
2654,1529,1.0
2654,2166,1.0
2655,2690,1.0
2656,2194,1.0
2657,1286,1.0
2657,1302,1.0
2657,2447,1.0
2657,2658,1.0
2658,1531,1.0
2658,1532,1.0
2658,2447,1.0
2658,2657,1.0
2658,2658,1.0
2661,2661,1.0
2663,2664,1.0
2664,2044,1.0
2668,2669,1.0
2668,2670,1.0
2669,686,1.0
2669,2463,1.0
2669,3191,1.0
2671,2439,1.0
2674,2674,1.0
2678,2382,1.0
2678,2396,1.0
2679,2679,1.0
2680,2680,1.0
2682,2682,1.0
2682,2683,1.0
2684,2378,1.0
2684,2682,1.0
2684,2683,1.0
2686,686,1.0
2686,687,1.0
2686,1714,1.0
2686,2385,1.0
2688,2409,1.0
2688,2687,1.0
2688,2689,1.0
2689,2687,1.0
2693,2373,1.0
2694,2505,1.0
2695,2212,1.0
2695,2498,1.0
2696,1867,1.0
2696,2578,1.0
2696,3144,1.0
2699,2441,1.0
2700,3231,1.0
2702,2647,1.0
2704,2602,1.0
2705,2864,1.0
2706,2445,1.0
2708,2825,1.0
2709,2681,1.0
2710,2761,1.0
2711,2438,1.0
2711,2465,1.0
2711,2531,1.0
2711,2532,1.0
2711,2667,1.0
2711,2813,1.0
2711,3244,1.0
2713,2653,1.0
2714,2939,1.0
2715,2475,1.0
2716,2717,1.0
2719,2718,1.0
2720,3015,1.0
2721,2629,1.0
2723,2722,1.0
2724,2744,1.0
2725,2725,1.0
2726,2557,1.0
2727,2913,1.0
2731,2337,1.0
2732,2526,1.0
2733,2349,1.0
2733,2746,1.0
2733,3195,1.0
2736,2178,1.0
2736,2476,1.0
2738,2408,1.0
2739,715,1.0
2739,2707,1.0
2740,2213,1.0
2741,2411,1.0
2742,1122,1.0
2742,2880,1.0
2745,122,1.0
2745,464,1.0
2745,2588,1.0
2745,2665,1.0
2745,3115,1.0
2747,2748,1.0
2749,3264,1.0
2750,2279,1.0
2752,2889,1.0
2753,2387,1.0
2753,2418,1.0
2754,2755,1.0
2758,3063,1.0
2759,2610,1.0
2762,2204,1.0
2764,3224,1.0
2768,2315,1.0
2773,2783,1.0
2774,2293,1.0
2776,2267,1.0
2776,2775,1.0
2777,2272,1.0
2777,3088,1.0
2778,2676,1.0
2778,2724,1.0
2780,2870,1.0
2781,2392,1.0
2782,2782,1.0
2784,2402,1.0
2784,2432,1.0
2784,2553,1.0
2784,3031,1.0
2784,3094,1.0
2785,2402,1.0
2785,2405,1.0
2785,2553,1.0
2786,2386,1.0
2788,2787,1.0
2790,2461,1.0
2790,2857,1.0
2794,2289,1.0
2794,2795,1.0
2795,1241,1.0
2796,2999,1.0
2797,2249,1.0
2798,3243,1.0
2799,3128,1.0
2801,2800,1.0
2802,3092,1.0
2803,2803,1.0
2804,2524,1.0
2805,2805,1.0
2805,2807,1.0
2805,3112,1.0
2805,3113,1.0
2806,2807,1.0
2808,2354,1.0
2809,2734,1.0
2809,3129,1.0
2810,2525,1.0
2811,2226,1.0
2812,2539,1.0
2813,2438,1.0
2813,2465,1.0
2814,2815,1.0
2816,2383,1.0
2817,2472,1.0
2818,2819,1.0
2820,2889,1.0
2821,2268,1.0
2822,2822,1.0
2823,2610,1.0
2824,2977,1.0
2827,2873,1.0
2828,3219,1.0
2829,2458,1.0
2829,2933,1.0
2830,2291,1.0
2831,2307,1.0
2832,2286,1.0
2832,2295,1.0
2832,2323,1.0
2832,3160,1.0
2832,3161,1.0
2832,3200,1.0
2833,2744,1.0
2835,2370,1.0
2836,2358,1.0
2837,2838,1.0
2837,2882,1.0
2839,2840,1.0
2840,2839,1.0
2841,2842,1.0
2843,626,1.0
2843,2276,1.0
2844,2227,1.0
2847,1807,1.0
2847,2848,1.0
2847,2849,1.0
2852,2853,1.0
2853,2852,1.0
2855,185,1.0
2855,199,1.0
2856,2751,1.0
2858,2464,1.0
2862,2932,1.0
2863,2864,1.0
2863,3131,1.0
2865,946,1.0
2865,2181,1.0
2866,3181,1.0
2868,2466,1.0
2872,2384,1.0
2874,2972,1.0
2874,3105,1.0
2875,2914,1.0
2877,2319,1.0
2877,2561,1.0
2878,2319,1.0
2878,2561,1.0
2878,3046,1.0
2878,3201,1.0
2878,3278,1.0
2881,3135,1.0
2883,2421,1.0
2884,2884,1.0
2885,2885,1.0
2886,2888,1.0
2887,2424,1.0
2887,2886,1.0
2890,2918,1.0
2891,2253,1.0
2892,2300,1.0
2894,556,1.0
2894,2266,1.0
2894,3048,1.0
2895,653,1.0
2896,2897,1.0
2897,2895,1.0
2898,2362,1.0
2901,3279,1.0
2902,2541,1.0
2906,2484,1.0
2910,2451,1.0
2912,2453,1.0
2916,1889,1.0
2916,2576,1.0
2917,2301,1.0
2919,2638,1.0
2920,2920,1.0
2921,2922,1.0
2923,95,1.0
2923,2692,1.0
2923,2924,1.0
2925,2925,1.0
2926,3249,1.0
2927,2363,1.0
2928,2822,1.0
2929,2867,1.0
2930,2419,1.0
2930,2471,1.0
2930,2980,1.0
2931,2492,1.0
2931,2497,1.0
2932,2862,1.0
2934,2308,1.0
2934,3270,1.0
2934,3271,1.0
2935,2180,1.0
2936,2869,1.0
2937,2659,1.0
2937,2938,1.0
2940,3076,1.0
2941,2389,1.0
2942,2915,1.0
2943,2482,1.0
2945,2355,1.0
2946,2789,1.0
2947,2876,1.0
2948,1173,1.0
2949,2949,1.0
2953,2950,1.0
2953,2956,1.0
2955,1173,1.0
2955,1813,1.0
2955,2251,1.0
2955,2332,1.0
2955,2503,1.0
2955,2760,1.0
2955,2948,1.0
2955,2952,1.0
2955,2954,1.0
2955,2958,1.0
2955,3173,1.0
2956,2950,1.0
2957,1813,1.0
2957,2959,1.0
2960,2404,1.0
2962,2962,1.0
2963,2834,1.0
2967,2966,1.0
2969,1897,1.0
2969,2292,1.0
2971,2417,1.0
2973,2973,1.0
2974,3077,1.0
2975,3118,1.0
2976,2399,1.0
2976,3303,1.0
2977,2824,1.0
2978,2978,1.0
2979,2599,1.0
2981,2452,1.0
2981,2549,1.0
2982,2707,1.0
2983,2454,1.0
2983,2984,1.0
2983,2986,1.0
2984,2454,1.0
2985,2454,1.0
2985,2984,1.0
2985,2986,1.0
2987,530,1.0
2987,2730,1.0
2989,2988,1.0
2990,2990,1.0
2991,2991,1.0
2993,3311,1.0
2995,2765,1.0
2996,2331,1.0
2996,2543,1.0
2996,2544,1.0
2996,2997,1.0
2996,3233,1.0
2998,3109,1.0
3001,3307,1.0
3002,2527,1.0
3003,3003,1.0
3006,3005,1.0
3007,2272,1.0
3008,3009,1.0
3010,3011,1.0
3012,2418,1.0
3014,3015,1.0
3016,2238,1.0
3016,3017,1.0
3019,2867,1.0
3020,936,1.0
3020,2531,1.0
3020,2532,1.0
3020,2533,1.0
3021,1529,1.0
3021,2166,1.0
3022,2224,1.0
3022,2780,1.0
3027,3026,1.0
3028,779,1.0
3028,828,1.0
3028,2460,1.0
3028,3162,1.0
3029,2277,1.0
3029,3029,1.0
3030,2304,1.0
3030,3030,1.0
3031,2402,1.0
3031,2432,1.0
3032,2477,1.0
3033,2540,1.0
3035,2246,1.0
3035,3034,1.0
3036,2501,1.0
3037,1829,1.0
3039,3073,1.0
3040,770,1.0
3041,770,1.0
3041,2415,1.0
3042,2539,1.0
3043,185,1.0
3043,2419,1.0
3043,2641,1.0
3043,2909,1.0
3043,2980,1.0
3043,3111,1.0
3043,3117,1.0
3044,2216,1.0
3045,3038,1.0
3046,638,1.0
3046,3201,1.0
3047,2735,1.0
3048,2290,1.0
3050,3049,1.0
3051,2234,1.0
3051,2270,1.0
3051,2510,1.0
3051,3052,1.0
3051,3054,1.0
3052,2234,1.0
3052,2510,1.0
3052,3053,1.0
3056,3055,1.0
3057,3033,1.0
3058,3231,1.0
3061,3060,1.0
3061,3062,1.0
3064,2637,1.0
3065,3066,1.0
3067,3065,1.0
3067,3066,1.0
3068,3069,1.0
3071,2269,1.0
3072,3071,1.0
3075,2449,1.0
3078,2744,1.0
3080,2665,1.0
3080,3079,1.0
3081,3082,1.0
3083,3084,1.0
3084,3081,1.0
3084,3082,1.0
3085,993,1.0
3085,2210,1.0
3085,2275,1.0
3085,2647,1.0
3086,3086,1.0
3087,3109,1.0
3089,2712,1.0
3090,3196,1.0
3091,3091,1.0
3095,3096,1.0
3095,3097,1.0
3095,3182,1.0
3096,3097,1.0
3096,3182,1.0
3099,2675,1.0
3099,3098,1.0
3100,3101,1.0
3102,3101,1.0
3103,3104,1.0
3103,3274,1.0
3106,2428,1.0
3107,2441,1.0
3107,2699,1.0
3107,2840,1.0
3108,2516,1.0
3108,2517,1.0
3110,2555,1.0
3114,2239,1.0
3119,2336,1.0
3119,2756,1.0
3121,3122,1.0
3122,194,1.0
3123,1698,1.0
3123,2826,1.0
3124,1849,1.0
3124,2260,1.0
3124,2337,1.0
3124,2646,1.0
3125,2310,1.0
3125,2390,1.0
3125,2483,1.0
3125,2485,1.0
3125,2534,1.0
3126,3126,1.0
3131,3130,1.0
3133,2413,1.0
3134,3133,1.0
3136,3137,1.0
3138,2549,1.0
3140,2371,1.0
3141,2673,1.0
3142,2769,1.0
3143,2964,1.0
3144,2283,1.0
3146,3150,1.0
3146,3295,1.0
3147,3146,1.0
3147,3149,1.0
3147,3150,1.0
3148,3146,1.0
3149,3146,1.0
3149,3150,1.0
3150,3146,1.0
3150,3149,1.0
3151,962,1.0
3151,2219,1.0
3151,3146,1.0
3152,3152,1.0
3153,2460,1.0
3154,2459,1.0
3155,874,1.0
3155,2429,1.0
3156,3159,1.0
3157,2313,1.0
3161,2295,1.0
3162,2460,1.0
3164,2340,1.0
3165,2437,1.0
3167,2334,1.0
3167,2444,1.0
3167,3168,1.0
3168,2444,1.0
3169,3014,1.0
3169,3015,1.0
3170,2869,1.0
3171,2223,1.0
3172,2403,1.0
3172,3304,1.0
3173,2251,1.0
3174,2728,1.0
3175,2324,1.0
3175,3074,1.0
3176,2343,1.0
3177,3178,1.0
3178,2428,1.0
3179,3179,1.0
3183,401,1.0
3183,404,1.0
3183,3184,1.0
3185,402,1.0
3185,2864,1.0
3186,2381,1.0
3186,2961,1.0
3188,2247,1.0
3188,3189,1.0
3189,2247,1.0
3189,2366,1.0
3190,2240,1.0
3190,3116,1.0
3193,2294,1.0
3195,2349,1.0
3195,2746,1.0
3197,3197,1.0
3198,3199,1.0
3199,3199,1.0
3202,2468,1.0
3202,2540,1.0
3202,3033,1.0
3202,3203,1.0
3204,2468,1.0
3207,2257,1.0
3207,3207,1.0
3208,2791,1.0
3209,2393,1.0
3210,2970,1.0
3212,2208,1.0
3212,3213,1.0
3212,3216,1.0
3213,3211,1.0
3215,2287,1.0
3218,2433,1.0
3220,2972,1.0
3220,3105,1.0
3225,2968,1.0
3226,3227,1.0
3227,2346,1.0
3228,2037,1.0
3228,2456,1.0
3228,2624,1.0
3228,3228,1.0
3229,3230,1.0
3232,3233,1.0
3234,3205,1.0
3235,2214,1.0
3235,2845,1.0
3236,2480,1.0
3237,3238,1.0
3239,2772,1.0
3240,2435,1.0
3240,2443,1.0
3240,2883,1.0
3240,3222,1.0
3241,3242,1.0
3244,2438,1.0
3244,2667,1.0
3246,3245,1.0
3250,3251,1.0
3253,3252,1.0
3254,2297,1.0
3256,2653,1.0
3257,2414,1.0
3258,341,1.0
3259,2477,1.0
3260,3261,1.0
3260,3263,1.0
3261,3263,1.0
3262,1651,1.0
3262,1823,1.0
3262,2629,1.0
3265,3000,1.0
3267,185,1.0
3267,3266,1.0
3268,3266,1.0
3269,2230,1.0
3270,2308,1.0
3272,2767,1.0
3273,446,1.0
3273,2237,1.0
3274,2351,1.0
3274,3013,1.0
3275,2410,1.0
3276,2450,1.0
3277,2771,1.0
3278,2701,1.0
3280,2330,1.0
3281,3222,1.0
3283,3284,1.0
3285,2365,1.0
3286,2379,1.0
3286,2437,1.0
3286,2703,1.0
3286,2721,1.0
3286,2864,1.0
3288,3287,1.0
3289,3248,1.0
3290,2334,1.0
3290,2444,1.0
3290,3167,1.0
3290,3168,1.0
3291,2318,1.0
3292,3292,1.0
3293,2624,1.0
3294,2495,1.0
3297,2685,1.0
3297,2879,1.0
3298,2743,1.0
3303,2399,1.0
3305,1529,1.0
3305,2166,1.0
3305,2654,1.0
3306,3302,1.0
3308,3309,1.0
